G04*
G04 #@! TF.GenerationSoftware,Altium Limited,Altium Designer,22.6.1 (34)*
G04*
G04 Layer_Physical_Order=4*
G04 Layer_Color=16711680*
%FSLAX25Y25*%
%MOIN*%
G70*
G04*
G04 #@! TF.SameCoordinates,9D7DB20D-DC87-410F-8539-F79083AAF036*
G04*
G04*
G04 #@! TF.FilePolarity,Positive*
G04*
G01*
G75*
G04:AMPARAMS|DCode=11|XSize=47.24mil|YSize=47.24mil|CornerRadius=11.81mil|HoleSize=0mil|Usage=FLASHONLY|Rotation=70.000|XOffset=0mil|YOffset=0mil|HoleType=Round|Shape=RoundedRectangle|*
%AMROUNDEDRECTD11*
21,1,0.04724,0.02362,0,0,70.0*
21,1,0.02362,0.04724,0,0,70.0*
1,1,0.02362,0.01514,0.00706*
1,1,0.02362,0.00706,-0.01514*
1,1,0.02362,-0.01514,-0.00706*
1,1,0.02362,-0.00706,0.01514*
%
%ADD11ROUNDEDRECTD11*%
%ADD13C,0.00050*%
%ADD14C,0.00400*%
%ADD16C,0.01600*%
G36*
X11571Y25278D02*
X12503Y25237D01*
X13433Y25168D01*
X14360Y25069D01*
X15284Y24943D01*
X16204Y24788D01*
X17118Y24604D01*
X18026Y24393D01*
X18927Y24154D01*
X19821Y23887D01*
X20706Y23593D01*
X21581Y23271D01*
X22447Y22923D01*
X23301Y22548D01*
X24143Y22148D01*
X24972Y21721D01*
X25788Y21270D01*
X26590Y20793D01*
X27376Y20292D01*
X28147Y19767D01*
X28901Y19218D01*
X29638Y18647D01*
X30357Y18053D01*
X31057Y17437D01*
X31738Y16800D01*
X32400Y16143D01*
X33040Y15465D01*
X33660Y14768D01*
X34258Y14052D01*
X34833Y13318D01*
X35386Y12567D01*
X35915Y11799D01*
X36420Y11016D01*
X36901Y10216D01*
X37357Y9403D01*
X37788Y8576D01*
X37991Y8156D01*
X21597Y511D01*
X21597Y511D01*
X21455Y782D01*
X21152Y1313D01*
X20822Y1828D01*
X20467Y2326D01*
X20088Y2805D01*
X19685Y3265D01*
X19259Y3705D01*
X18812Y4122D01*
X18345Y4516D01*
X17859Y4887D01*
X17355Y5232D01*
X16834Y5553D01*
X16297Y5846D01*
X15747Y6112D01*
X15184Y6351D01*
X14609Y6561D01*
X14026Y6742D01*
X13433Y6893D01*
X12834Y7015D01*
X12229Y7107D01*
X11621Y7168D01*
X11010Y7198D01*
X10399D01*
X9788Y7168D01*
X9180Y7107D01*
X8575Y7015D01*
X7976Y6893D01*
X7384Y6742D01*
X6800Y6561D01*
X6225Y6351D01*
X5663Y6112D01*
X5112Y5846D01*
X4576Y5553D01*
X4055Y5232D01*
X3550Y4887D01*
X3064Y4516D01*
X2597Y4122D01*
X2150Y3705D01*
X1725Y3265D01*
X1322Y2805D01*
X942Y2326D01*
X587Y1828D01*
X258Y1313D01*
X-46Y782D01*
X-187Y511D01*
X-19007Y9287D01*
X-18838Y9650D01*
X-18475Y9481D01*
X-364Y1035D01*
X-364Y1035D01*
X-217Y1304D01*
X104Y1828D01*
X449Y2336D01*
X818Y2826D01*
X1211Y3298D01*
X1627Y3750D01*
X2064Y4182D01*
X2521Y4591D01*
X2998Y4978D01*
X3493Y5341D01*
X4006Y5680D01*
X4534Y5993D01*
X5076Y6281D01*
X5632Y6541D01*
X6200Y6774D01*
X6779Y6979D01*
X7367Y7156D01*
X7963Y7304D01*
X8566Y7423D01*
X9173Y7513D01*
X9784Y7572D01*
X10398Y7602D01*
X11012Y7602D01*
X11625Y7572D01*
X12236Y7513D01*
X12844Y7423D01*
X13446Y7304D01*
X14042Y7156D01*
X14630Y6979D01*
X15209Y6774D01*
X15777Y6541D01*
X16333Y6281D01*
X16875Y5993D01*
X17404Y5680D01*
X17916Y5341D01*
X18411Y4978D01*
X18888Y4591D01*
X19345Y4182D01*
X19782Y3751D01*
X20198Y3298D01*
X20591Y2826D01*
X20960Y2336D01*
X21306Y1828D01*
X21626Y1304D01*
X21773Y1035D01*
X37452Y8346D01*
X37452Y8346D01*
X37452Y8346D01*
X37452Y8346D01*
X37233Y8775D01*
X36776Y9621D01*
X36292Y10453D01*
X35781Y11268D01*
X35244Y12067D01*
X34682Y12847D01*
X34095Y13610D01*
X33484Y14353D01*
X32849Y15076D01*
X32191Y15778D01*
X31511Y16459D01*
X30809Y17117D01*
X30087Y17753D01*
X29344Y18365D01*
X28583Y18952D01*
X27802Y19515D01*
X27004Y20053D01*
X26189Y20564D01*
X25358Y21049D01*
X24512Y21508D01*
X23652Y21938D01*
X22778Y22341D01*
X21892Y22715D01*
X20993Y23061D01*
X20085Y23377D01*
X19167Y23664D01*
X18239Y23922D01*
X17305Y24149D01*
X16363Y24347D01*
X15415Y24514D01*
X14463Y24650D01*
X13506Y24755D01*
X12547Y24830D01*
X11586Y24874D01*
X10624Y24887D01*
X9662Y24869D01*
X8701Y24820D01*
X7742Y24740D01*
X6786Y24629D01*
X5835Y24488D01*
X4888Y24316D01*
X3947Y24113D01*
X3014Y23881D01*
X2088Y23618D01*
X1171Y23326D01*
X264Y23005D01*
X-632Y22654D01*
X-1516Y22275D01*
X-2388Y21868D01*
X-3246Y21432D01*
X-4090Y20970D01*
X-4918Y20480D01*
X-5730Y19964D01*
X-6525Y19423D01*
X-7303Y18856D01*
X-8061Y18264D01*
X-8800Y17648D01*
X-9519Y17008D01*
X-10217Y16346D01*
X-10894Y15662D01*
X-11548Y14956D01*
X-12179Y14230D01*
X-12786Y13483D01*
X-13369Y12718D01*
X-13927Y11934D01*
X-14459Y11133D01*
X-14966Y10314D01*
X-15446Y9480D01*
X-15675Y9058D01*
X-687Y2068D01*
X-687Y2068D01*
X-524Y2331D01*
X-173Y2841D01*
X200Y3334D01*
X596Y3810D01*
X1014Y4267D01*
X1452Y4704D01*
X1910Y5120D01*
X2386Y5515D01*
X2880Y5887D01*
X3391Y6236D01*
X3917Y6562D01*
X4458Y6863D01*
X5012Y7138D01*
X5578Y7388D01*
X6155Y7611D01*
X6742Y7807D01*
X7338Y7976D01*
X7940Y8118D01*
X8548Y8231D01*
X9161Y8316D01*
X9777Y8373D01*
X10395Y8402D01*
X11014Y8402D01*
X11632Y8373D01*
X12248Y8316D01*
X12861Y8231D01*
X13469Y8118D01*
X14072Y7976D01*
X14667Y7807D01*
X15254Y7611D01*
X15831Y7388D01*
X16397Y7138D01*
X16951Y6863D01*
X17492Y6562D01*
X18018Y6236D01*
X18529Y5887D01*
X19023Y5515D01*
X19500Y5120D01*
X19958Y4704D01*
X20395Y4267D01*
X20813Y3810D01*
X21209Y3334D01*
X21582Y2841D01*
X21933Y2331D01*
X22096Y2068D01*
X36358Y8719D01*
X36358Y8719D01*
X36359Y8719D01*
X36358Y8719D01*
X36140Y9119D01*
X35685Y9910D01*
X35205Y10685D01*
X34701Y11445D01*
X34174Y12189D01*
X33623Y12916D01*
X33050Y13625D01*
X32456Y14317D01*
X31839Y14989D01*
X31202Y15641D01*
X30545Y16273D01*
X29868Y16885D01*
X29173Y17474D01*
X28459Y18042D01*
X27728Y18587D01*
X26980Y19109D01*
X26216Y19607D01*
X25437Y20081D01*
X24644Y20531D01*
X23836Y20955D01*
X23016Y21354D01*
X22184Y21727D01*
X21341Y22073D01*
X20487Y22393D01*
X19623Y22686D01*
X18751Y22952D01*
X17871Y23191D01*
X16984Y23402D01*
X16090Y23584D01*
X15191Y23739D01*
X14288Y23866D01*
X13382Y23964D01*
X12472Y24033D01*
X11562Y24074D01*
X10650Y24087D01*
X9738Y24071D01*
X8827Y24026D01*
X7918Y23953D01*
X7012Y23852D01*
X6109Y23722D01*
X5211Y23564D01*
X4318Y23378D01*
X3432Y23164D01*
X2553Y22922D01*
X1681Y22652D01*
X819Y22356D01*
X-34Y22033D01*
X-876Y21683D01*
X-1707Y21307D01*
X-2525Y20905D01*
X-3331Y20478D01*
X-4123Y20026D01*
X-4900Y19549D01*
X-5662Y19048D01*
X-6408Y18523D01*
X-7137Y17975D01*
X-7848Y17405D01*
X-8542Y16812D01*
X-9216Y16198D01*
X-9871Y15564D01*
X-10505Y14909D01*
X-11119Y14234D01*
X-11711Y13541D01*
X-12282Y12829D01*
X-12830Y12100D01*
X-13354Y11354D01*
X-13855Y10592D01*
X-14332Y9815D01*
X-14561Y9421D01*
X-976Y3086D01*
Y3086D01*
X-798Y3342D01*
X-421Y3838D01*
X-22Y4317D01*
X397Y4779D01*
X836Y5221D01*
X1294Y5644D01*
X1770Y6046D01*
X2263Y6427D01*
X2772Y6786D01*
X3297Y7123D01*
X3836Y7436D01*
X4388Y7725D01*
X4953Y7990D01*
X5528Y8229D01*
X6113Y8444D01*
X6707Y8632D01*
X7309Y8794D01*
X7918Y8930D01*
X8531Y9038D01*
X9149Y9120D01*
X9770Y9175D01*
X10393Y9202D01*
X11016Y9202D01*
X11639Y9175D01*
X12260Y9120D01*
X12878Y9038D01*
X13491Y8930D01*
X14100Y8794D01*
X14702Y8632D01*
X15296Y8444D01*
X15881Y8229D01*
X16457Y7990D01*
X17021Y7725D01*
X17573Y7436D01*
X18112Y7123D01*
X18637Y6786D01*
X19146Y6427D01*
X19639Y6046D01*
X20116Y5644D01*
X20573Y5221D01*
X21012Y4779D01*
X21432Y4317D01*
X21830Y3838D01*
X22207Y3342D01*
X22385Y3086D01*
X35243Y9081D01*
X35243Y9081D01*
X35243Y9082D01*
X35243Y9081D01*
X35012Y9477D01*
X34530Y10255D01*
X34024Y11018D01*
X33493Y11764D01*
X32939Y12492D01*
X32361Y13202D01*
X31761Y13893D01*
X31138Y14565D01*
X30494Y15215D01*
X29830Y15845D01*
X29145Y16453D01*
X28441Y17038D01*
X27719Y17600D01*
X26978Y18139D01*
X26221Y18653D01*
X25447Y19143D01*
X24658Y19607D01*
X23855Y20046D01*
X23038Y20458D01*
X22207Y20843D01*
X21365Y21202D01*
X20512Y21533D01*
X19648Y21836D01*
X18775Y22112D01*
X17893Y22359D01*
X17004Y22577D01*
X16108Y22766D01*
X15207Y22927D01*
X14301Y23057D01*
X13391Y23159D01*
X12479Y23231D01*
X11564Y23274D01*
X10649Y23287D01*
X9734Y23270D01*
X8819Y23224D01*
X7907Y23148D01*
X6998Y23043D01*
X6092Y22908D01*
X5191Y22745D01*
X4296Y22552D01*
X3408Y22330D01*
X2528Y22080D01*
X1656Y21801D01*
X793Y21494D01*
X-59Y21160D01*
X-900Y20798D01*
X-1729Y20409D01*
X-2544Y19994D01*
X-3346Y19552D01*
X-4133Y19084D01*
X-4905Y18592D01*
X-5660Y18075D01*
X-6398Y17533D01*
X-7119Y16968D01*
X-7820Y16380D01*
X-8503Y15770D01*
X-9165Y15137D01*
X-9806Y14484D01*
X-10426Y13810D01*
X-11024Y13117D01*
X-11598Y12405D01*
X-12150Y11674D01*
X-12678Y10926D01*
X-13181Y10161D01*
X-13423Y9773D01*
X-1235Y4089D01*
X-1235D01*
X-1045Y4339D01*
X-644Y4822D01*
X-223Y5287D01*
X217Y5735D01*
X675Y6164D01*
X1151Y6573D01*
X1643Y6962D01*
X2151Y7331D01*
X2674Y7677D01*
X3212Y8002D01*
X3762Y8304D01*
X4324Y8582D01*
X4898Y8837D01*
X5481Y9067D01*
X6074Y9273D01*
X6675Y9454D01*
X7283Y9610D01*
X7897Y9741D01*
X8516Y9845D01*
X9138Y9923D01*
X9764Y9976D01*
X10391Y10002D01*
X11018Y10002D01*
X11645Y9976D01*
X12271Y9923D01*
X12893Y9845D01*
X13512Y9741D01*
X14126Y9610D01*
X14734Y9454D01*
X15335Y9273D01*
X15928Y9067D01*
X16512Y8837D01*
X17085Y8582D01*
X17648Y8304D01*
X18198Y8002D01*
X18735Y7677D01*
X19258Y7331D01*
X19766Y6962D01*
X20259Y6573D01*
X20734Y6164D01*
X21192Y5735D01*
X21632Y5287D01*
X22053Y4822D01*
X22454Y4339D01*
X22644Y4089D01*
X34103Y9433D01*
D01*
X34103Y9433D01*
X34103Y9433D01*
X33858Y9822D01*
X33349Y10588D01*
X32815Y11336D01*
X32256Y12066D01*
X31674Y12777D01*
X31067Y13468D01*
X30438Y14138D01*
X29787Y14787D01*
X29114Y15414D01*
X28421Y16018D01*
X27709Y16599D01*
X26977Y17155D01*
X26226Y17687D01*
X25459Y18193D01*
X24675Y18674D01*
X23876Y19127D01*
X23061Y19554D01*
X22233Y19953D01*
X21392Y20325D01*
X20539Y20668D01*
X19675Y20983D01*
X18801Y21268D01*
X17918Y21524D01*
X17027Y21750D01*
X16129Y21947D01*
X15225Y22113D01*
X14316Y22249D01*
X13402Y22354D01*
X12486Y22429D01*
X11568Y22474D01*
X10648Y22487D01*
X9729Y22470D01*
X8811Y22422D01*
X7895Y22343D01*
X6982Y22234D01*
X6073Y22094D01*
X5170Y21924D01*
X4273Y21724D01*
X3382Y21494D01*
X2501Y21235D01*
X1628Y20946D01*
X765Y20628D01*
X-86Y20281D01*
X-926Y19906D01*
X-1752Y19503D01*
X-2565Y19073D01*
X-3363Y18616D01*
X-4144Y18133D01*
X-4910Y17623D01*
X-5658Y17089D01*
X-6387Y16529D01*
X-7098Y15946D01*
X-7789Y15339D01*
X-8459Y14709D01*
X-9107Y14058D01*
X-9733Y13385D01*
X-10337Y12691D01*
X-10917Y11978D01*
X-11473Y11245D01*
X-12004Y10495D01*
X-12260Y10113D01*
X-1468Y5081D01*
Y5081D01*
X-1247Y5348D01*
X-780Y5863D01*
X-292Y6357D01*
X218Y6829D01*
X748Y7278D01*
X1297Y7704D01*
X1865Y8105D01*
X2449Y8480D01*
X3050Y8830D01*
X3665Y9153D01*
X4294Y9448D01*
X4935Y9716D01*
X5587Y9955D01*
X6249Y10165D01*
X6920Y10346D01*
X7598Y10498D01*
X8282Y10619D01*
X8971Y10711D01*
X9663Y10772D01*
X10357Y10802D01*
X11052D01*
X11746Y10772D01*
X12438Y10711D01*
X13127Y10619D01*
X13811Y10498D01*
X14489Y10346D01*
X15160Y10165D01*
X15822Y9955D01*
X16474Y9716D01*
X17116Y9448D01*
X17744Y9153D01*
X18360Y8830D01*
X18960Y8480D01*
X19544Y8105D01*
X20112Y7704D01*
X20661Y7278D01*
X21191Y6829D01*
X21701Y6357D01*
X22190Y5863D01*
X22656Y5348D01*
X22878Y5081D01*
X32936Y9771D01*
X32936Y9771D01*
X32936Y9771D01*
X32936Y9771D01*
X32694Y10128D01*
X32194Y10830D01*
X31671Y11516D01*
X31127Y12184D01*
X30561Y12835D01*
X29974Y13467D01*
X29368Y14079D01*
X28742Y14672D01*
X28097Y15244D01*
X27434Y15795D01*
X26753Y16325D01*
X26056Y16832D01*
X25343Y17316D01*
X24614Y17777D01*
X23871Y18214D01*
X23115Y18627D01*
X22345Y19016D01*
X21563Y19379D01*
X20770Y19717D01*
X19966Y20029D01*
X19153Y20315D01*
X18331Y20575D01*
X17501Y20808D01*
X16664Y21013D01*
X15820Y21192D01*
X14972Y21344D01*
X14118Y21468D01*
X13262Y21564D01*
X12402Y21633D01*
X11541Y21674D01*
X10679Y21687D01*
X9817Y21672D01*
X8956Y21630D01*
X8097Y21559D01*
X7240Y21461D01*
X6387Y21336D01*
X5539Y21182D01*
X4696Y21002D01*
X3859Y20795D01*
X3029Y20560D01*
X2208Y20299D01*
X1395Y20011D01*
X592Y19698D01*
X-200Y19358D01*
X-982Y18993D01*
X-1750Y18604D01*
X-2506Y18189D01*
X-3249Y17750D01*
X-3976Y17288D01*
X-4689Y16802D01*
X-5385Y16294D01*
X-6064Y15763D01*
X-6726Y15211D01*
X-7370Y14638D01*
X-7995Y14044D01*
X-8601Y13430D01*
X-9186Y12797D01*
X-9751Y12145D01*
X-10294Y11476D01*
X-10815Y10789D01*
X-11067Y10440D01*
X-1679Y6062D01*
Y6062D01*
X-1446Y6322D01*
X-959Y6823D01*
X-451Y7304D01*
X77Y7762D01*
X623Y8197D01*
X1187Y8610D01*
X1768Y8998D01*
X2365Y9361D01*
X2977Y9699D01*
X3602Y10011D01*
X4240Y10297D01*
X4890Y10555D01*
X5549Y10786D01*
X6218Y10989D01*
X6895Y11163D01*
X7578Y11309D01*
X8267Y11426D01*
X8961Y11514D01*
X9657Y11573D01*
X10355Y11602D01*
X11054D01*
X11752Y11573D01*
X12449Y11514D01*
X13142Y11426D01*
X13831Y11309D01*
X14514Y11163D01*
X15191Y10989D01*
X15860Y10786D01*
X16520Y10555D01*
X17169Y10297D01*
X17807Y10011D01*
X18432Y9699D01*
X19044Y9361D01*
X19641Y8998D01*
X20222Y8610D01*
X20786Y8197D01*
X21333Y7762D01*
X21860Y7304D01*
X22368Y6823D01*
X22856Y6322D01*
X23088Y6062D01*
X31739Y10096D01*
X31739Y10096D01*
X31739Y10096D01*
X31739Y10096D01*
X31485Y10444D01*
X30959Y11127D01*
X30411Y11792D01*
X29840Y12439D01*
X29249Y13066D01*
X28637Y13674D01*
X28005Y14260D01*
X27354Y14826D01*
X26684Y15369D01*
X25997Y15889D01*
X25293Y16387D01*
X24573Y16861D01*
X23837Y17310D01*
X23087Y17735D01*
X22323Y18135D01*
X21546Y18508D01*
X20757Y18856D01*
X19957Y19178D01*
X19147Y19472D01*
X18327Y19740D01*
X17499Y19980D01*
X16664Y20192D01*
X15821Y20377D01*
X14973Y20533D01*
X14121Y20661D01*
X13264Y20760D01*
X12405Y20831D01*
X11544Y20874D01*
X10682Y20887D01*
X9820Y20872D01*
X8959Y20828D01*
X8100Y20756D01*
X7243Y20655D01*
X6391Y20525D01*
X5543Y20368D01*
X4702Y20182D01*
X3866Y19968D01*
X3039Y19726D01*
X2219Y19457D01*
X1410Y19162D01*
X610Y18839D01*
X-178Y18489D01*
X-954Y18114D01*
X-1718Y17713D01*
X-2467Y17287D01*
X-3202Y16836D01*
X-3921Y16361D01*
X-4625Y15863D01*
X-5311Y15341D01*
X-5979Y14796D01*
X-6630Y14230D01*
X-7260Y13642D01*
X-7871Y13034D01*
X-8462Y12405D01*
X-9031Y11758D01*
X-9578Y11091D01*
X-9843Y10751D01*
X-1870Y7034D01*
X-1627Y7287D01*
X-1121Y7775D01*
X-596Y8241D01*
X-52Y8687D01*
X509Y9109D01*
X1087Y9509D01*
X1681Y9885D01*
X2289Y10237D01*
X2911Y10564D01*
X3545Y10866D01*
X4191Y11142D01*
X4848Y11391D01*
X5515Y11614D01*
X6189Y11810D01*
X6871Y11979D01*
X7560Y12119D01*
X8253Y12232D01*
X8951Y12317D01*
X9651Y12374D01*
X10353Y12402D01*
X11056D01*
X11758Y12374D01*
X12458Y12317D01*
X13156Y12232D01*
X13849Y12119D01*
X14538Y11979D01*
X15220Y11810D01*
X15895Y11614D01*
X16561Y11391D01*
X17218Y11142D01*
X17864Y10866D01*
X18499Y10564D01*
X19120Y10237D01*
X19729Y9885D01*
X20322Y9509D01*
X20900Y9109D01*
X21461Y8687D01*
X22005Y8241D01*
X22530Y7775D01*
X23036Y7287D01*
X23279Y7034D01*
X30509Y10405D01*
D01*
X30509Y10405D01*
X30509Y10405D01*
X30242Y10743D01*
X29689Y11404D01*
X29114Y12047D01*
X28518Y12669D01*
X27900Y13270D01*
X27262Y13850D01*
X26605Y14407D01*
X25929Y14942D01*
X25235Y15453D01*
X24524Y15940D01*
X23796Y16402D01*
X23053Y16839D01*
X22296Y17250D01*
X21524Y17635D01*
X20740Y17993D01*
X19945Y18324D01*
X19138Y18628D01*
X18321Y18903D01*
X17496Y19151D01*
X16662Y19370D01*
X15821Y19560D01*
X14975Y19721D01*
X14123Y19853D01*
X13267Y19956D01*
X12408Y20029D01*
X11547Y20073D01*
X10686Y20087D01*
X9824Y20072D01*
X8963Y20027D01*
X8104Y19952D01*
X7249Y19848D01*
X6397Y19715D01*
X5551Y19552D01*
X4710Y19361D01*
X3877Y19140D01*
X3052Y18892D01*
X2236Y18615D01*
X1429Y18310D01*
X634Y17978D01*
X-149Y17618D01*
X-920Y17232D01*
X-1677Y16820D01*
X-2419Y16382D01*
X-3146Y15919D01*
X-3856Y15431D01*
X-4550Y14919D01*
X-5225Y14383D01*
X-5882Y13825D01*
X-6519Y13244D01*
X-7135Y12642D01*
X-7731Y12019D01*
X-8305Y11376D01*
X-8583Y11047D01*
X-2043Y7997D01*
Y7997D01*
X-1790Y8244D01*
X-1267Y8718D01*
X-726Y9172D01*
X-168Y9604D01*
X406Y10015D01*
X996Y10403D01*
X1601Y10767D01*
X2219Y11108D01*
X2850Y11425D01*
X3493Y11717D01*
X4147Y11984D01*
X4811Y12225D01*
X5483Y12441D01*
X6163Y12630D01*
X6850Y12793D01*
X7543Y12929D01*
X8241Y13038D01*
X8942Y13120D01*
X9646Y13175D01*
X10352Y13202D01*
X11058D01*
X11763Y13175D01*
X12467Y13120D01*
X13169Y13038D01*
X13866Y12929D01*
X14559Y12793D01*
X15246Y12630D01*
X15926Y12441D01*
X16599Y12225D01*
X17262Y11984D01*
X17916Y11717D01*
X18559Y11425D01*
X19190Y11108D01*
X19808Y10767D01*
X20413Y10403D01*
X21003Y10015D01*
X21577Y9604D01*
X22136Y9172D01*
X22677Y8718D01*
X23200Y8244D01*
X23452Y7997D01*
X29242Y10697D01*
D01*
X29242Y10697D01*
X29242Y10697D01*
X28988Y10992D01*
X28465Y11570D01*
X27925Y12131D01*
X27366Y12674D01*
X26791Y13199D01*
X26199Y13705D01*
X25591Y14193D01*
X24968Y14660D01*
X24329Y15107D01*
X23678Y15534D01*
X23012Y15939D01*
X22334Y16323D01*
X21644Y16685D01*
X20943Y17024D01*
X20232Y17341D01*
X19510Y17635D01*
X18780Y17906D01*
X18041Y18153D01*
X17294Y18376D01*
X16541Y18576D01*
X15782Y18751D01*
X15018Y18901D01*
X14249Y19027D01*
X13476Y19128D01*
X12701Y19205D01*
X11924Y19256D01*
X11145Y19283D01*
X10366Y19285D01*
X9587Y19261D01*
X8810Y19213D01*
X8034Y19140D01*
X7261Y19042D01*
X6492Y18919D01*
X5727Y18772D01*
X4967Y18600D01*
X4213Y18404D01*
X3839Y18297D01*
X3839Y17749D01*
X3839Y17749D01*
X3919Y17733D01*
X4072Y17674D01*
X4213Y17592D01*
X4339Y17488D01*
X4447Y17364D01*
X4533Y17225D01*
X4595Y17073D01*
X4632Y16914D01*
X4642Y16750D01*
X4625Y16587D01*
X4583Y16429D01*
X4515Y16280D01*
X4424Y16144D01*
X4312Y16025D01*
X4182Y15925D01*
X4037Y15848D01*
X3882Y15796D01*
X3720Y15769D01*
X3557D01*
X3395Y15796D01*
X3240Y15848D01*
X3096Y15925D01*
X2966Y16025D01*
X2853Y16144D01*
X2762Y16280D01*
X2695Y16429D01*
X2652Y16587D01*
X2635Y16750D01*
X2646Y16914D01*
X2682Y17073D01*
X2744Y17225D01*
X2830Y17364D01*
X2938Y17488D01*
X3064Y17592D01*
X3205Y17674D01*
X3358Y17733D01*
X3439Y17749D01*
Y18594D01*
X3439D01*
X3439Y18594D01*
Y18594D01*
X3828Y18714D01*
X4614Y18928D01*
X5407Y19116D01*
X6206Y19277D01*
X7009Y19412D01*
X7817Y19521D01*
X8628Y19603D01*
X9441Y19658D01*
X10255Y19686D01*
X11070Y19688D01*
X11884Y19662D01*
X12697Y19610D01*
X13508Y19531D01*
X14316Y19425D01*
X15120Y19293D01*
X15919Y19134D01*
X16713Y18949D01*
X17500Y18737D01*
X18280Y18500D01*
X19051Y18238D01*
X19813Y17950D01*
X20565Y17637D01*
X21307Y17299D01*
X22037Y16937D01*
X22755Y16552D01*
X23460Y16142D01*
X24150Y15710D01*
X24826Y15255D01*
X25487Y14778D01*
X26132Y14280D01*
X26760Y13761D01*
X27370Y13221D01*
X27962Y12661D01*
X28536Y12082D01*
X29090Y11485D01*
X29624Y10870D01*
X29880Y10553D01*
X23368Y7516D01*
X23368Y7516D01*
X23118Y7764D01*
X22603Y8245D01*
X22070Y8705D01*
X21519Y9143D01*
X20951Y9560D01*
X20367Y9954D01*
X19768Y10324D01*
X19154Y10670D01*
X18528Y10992D01*
X17889Y11289D01*
X17239Y11560D01*
X16579Y11805D01*
X15910Y12025D01*
X15232Y12217D01*
X14548Y12382D01*
X13857Y12521D01*
X13162Y12632D01*
X12463Y12715D01*
X11761Y12771D01*
X11057Y12799D01*
X10352D01*
X9649Y12771D01*
X8947Y12715D01*
X8247Y12632D01*
X7552Y12521D01*
X6861Y12382D01*
X6177Y12217D01*
X5499Y12025D01*
X4830Y11805D01*
X4170Y11560D01*
X3520Y11289D01*
X2881Y10992D01*
X2255Y10670D01*
X1642Y10324D01*
X1043Y9954D01*
X459Y9560D01*
X-109Y9143D01*
X-660Y8705D01*
X-1194Y8245D01*
X-1708Y7764D01*
X-1958Y7516D01*
X-9218Y10901D01*
X-9218Y10901D01*
X-9218Y10901D01*
D01*
X-8939Y11251D01*
X-8356Y11931D01*
X-7749Y12589D01*
X-7120Y13227D01*
X-6469Y13841D01*
X-5796Y14432D01*
X-5104Y15000D01*
X-4391Y15542D01*
X-3661Y16060D01*
X-2912Y16551D01*
X-2147Y17016D01*
X-1366Y17453D01*
X-570Y17863D01*
X240Y18245D01*
X1063Y18598D01*
X1898Y18922D01*
X2743Y19217D01*
X3599Y19481D01*
X4463Y19715D01*
X5335Y19919D01*
X6213Y20092D01*
X7097Y20235D01*
X7986Y20346D01*
X8878Y20426D01*
X9772Y20474D01*
X10667Y20491D01*
X11562Y20477D01*
X12456Y20431D01*
X13349Y20354D01*
X14237Y20245D01*
X15122Y20106D01*
X16001Y19935D01*
X16873Y19734D01*
X17738Y19502D01*
X18594Y19240D01*
X19441Y18948D01*
X20276Y18626D01*
X21100Y18276D01*
X21911Y17897D01*
X22709Y17489D01*
X23491Y17054D01*
X24258Y16591D01*
X25008Y16102D01*
X25740Y15587D01*
X26454Y15046D01*
X27148Y14481D01*
X27822Y13892D01*
X28475Y13279D01*
X29107Y12644D01*
X29715Y11987D01*
X30300Y11309D01*
X30861Y10611D01*
X31129Y10252D01*
X23186Y6549D01*
X23186Y6549D01*
X22946Y6803D01*
X22449Y7298D01*
X21932Y7771D01*
X21396Y8222D01*
X20842Y8651D01*
X20271Y9057D01*
X19684Y9439D01*
X19081Y9797D01*
X18465Y10129D01*
X17835Y10436D01*
X17193Y10716D01*
X16540Y10970D01*
X15877Y11197D01*
X15205Y11396D01*
X14526Y11567D01*
X13840Y11711D01*
X13149Y11826D01*
X12453Y11912D01*
X11755Y11970D01*
X11055Y11998D01*
X10354D01*
X9654Y11970D01*
X8956Y11912D01*
X8261Y11826D01*
X7570Y11711D01*
X6884Y11567D01*
X6204Y11396D01*
X5533Y11197D01*
X4870Y10970D01*
X4217Y10716D01*
X3575Y10436D01*
X2945Y10129D01*
X2328Y9797D01*
X1725Y9439D01*
X1138Y9057D01*
X567Y8651D01*
X13Y8222D01*
X-523Y7771D01*
X-1039Y7298D01*
X-1536Y6803D01*
X-1777Y6549D01*
X-10459Y10598D01*
X-10459Y10598D01*
Y10598D01*
X-10459Y10598D01*
X-10194Y10957D01*
X-9640Y11657D01*
X-9063Y12338D01*
X-8462Y13000D01*
X-7840Y13640D01*
X-7196Y14259D01*
X-6531Y14856D01*
X-5847Y15429D01*
X-5143Y15980D01*
X-4422Y16506D01*
X-3683Y17007D01*
X-2927Y17483D01*
X-2155Y17932D01*
X-1369Y18356D01*
X-569Y18752D01*
X245Y19121D01*
X1070Y19463D01*
X1907Y19776D01*
X2753Y20060D01*
X3609Y20316D01*
X4473Y20542D01*
X5344Y20739D01*
X6221Y20906D01*
X7104Y21043D01*
X7990Y21150D01*
X8880Y21228D01*
X9772Y21274D01*
X10665Y21291D01*
X11558Y21277D01*
X12450Y21233D01*
X13340Y21159D01*
X14227Y21054D01*
X15110Y20919D01*
X15988Y20755D01*
X16859Y20561D01*
X17724Y20337D01*
X18580Y20084D01*
X19428Y19802D01*
X20265Y19492D01*
X21092Y19153D01*
X21906Y18786D01*
X22708Y18392D01*
X23495Y17971D01*
X24268Y17524D01*
X25025Y17050D01*
X25766Y16551D01*
X26489Y16027D01*
X27194Y15479D01*
X27881Y14908D01*
X28547Y14313D01*
X29193Y13696D01*
X29817Y13057D01*
X30419Y12398D01*
X30999Y11719D01*
X31556Y11020D01*
X32088Y10303D01*
X32341Y9935D01*
X22986Y5573D01*
X22986Y5573D01*
X22756Y5834D01*
X22278Y6342D01*
X21780Y6829D01*
X21261Y7294D01*
X20723Y7736D01*
X20166Y8155D01*
X19592Y8549D01*
X19001Y8918D01*
X18395Y9262D01*
X17775Y9579D01*
X17141Y9869D01*
X16496Y10132D01*
X15840Y10367D01*
X15175Y10574D01*
X14501Y10751D01*
X13821Y10900D01*
X13134Y11019D01*
X12443Y11109D01*
X11749Y11168D01*
X11053Y11198D01*
X10356D01*
X9660Y11168D01*
X8966Y11109D01*
X8275Y11019D01*
X7589Y10900D01*
X6908Y10751D01*
X6235Y10574D01*
X5569Y10367D01*
X4913Y10132D01*
X4268Y9869D01*
X3635Y9579D01*
X3014Y9262D01*
X2408Y8918D01*
X1818Y8549D01*
X1243Y8155D01*
X686Y7736D01*
X148Y7294D01*
X-371Y6829D01*
X-869Y6342D01*
X-1346Y5834D01*
X-1577Y5573D01*
X-11667Y10278D01*
X-11667Y10278D01*
X-11667Y10278D01*
D01*
X-11416Y10646D01*
X-10889Y11365D01*
X-10340Y12066D01*
X-9767Y12748D01*
X-9172Y13411D01*
X-8556Y14055D01*
X-7919Y14678D01*
X-7262Y15279D01*
X-6585Y15859D01*
X-5890Y16416D01*
X-5177Y16950D01*
X-4446Y17460D01*
X-3700Y17946D01*
X-2937Y18407D01*
X-2160Y18842D01*
X-1369Y19252D01*
X-565Y19636D01*
X251Y19993D01*
X1078Y20323D01*
X1916Y20626D01*
X2764Y20901D01*
X3619Y21148D01*
X4483Y21367D01*
X5353Y21557D01*
X6230Y21719D01*
X7111Y21851D01*
X7995Y21955D01*
X8883Y22029D01*
X9773Y22075D01*
X10664Y22091D01*
X11554Y22077D01*
X12444Y22035D01*
X13332Y21963D01*
X14218Y21862D01*
X15099Y21732D01*
X15976Y21573D01*
X16846Y21386D01*
X17711Y21170D01*
X18567Y20925D01*
X19416Y20653D01*
X20254Y20352D01*
X21083Y20025D01*
X21900Y19670D01*
X22705Y19289D01*
X23497Y18881D01*
X24276Y18448D01*
X25039Y17989D01*
X25788Y17505D01*
X26520Y16997D01*
X27234Y16466D01*
X27931Y15911D01*
X28610Y15333D01*
X29269Y14734D01*
X29908Y14113D01*
X30526Y13471D01*
X31122Y12810D01*
X31697Y12129D01*
X32249Y11430D01*
X32778Y10713D01*
X33283Y9979D01*
X33523Y9604D01*
X22764Y4586D01*
X22764Y4586D01*
X22545Y4855D01*
X22090Y5377D01*
X21612Y5878D01*
X21112Y6357D01*
X20591Y6813D01*
X20050Y7245D01*
X19490Y7653D01*
X18913Y8034D01*
X18318Y8390D01*
X17709Y8718D01*
X17085Y9019D01*
X16449Y9292D01*
X15800Y9535D01*
X15142Y9749D01*
X14475Y9934D01*
X13800Y10088D01*
X13118Y10212D01*
X12432Y10305D01*
X11743Y10367D01*
X11051Y10398D01*
X10358D01*
X9667Y10367D01*
X8977Y10305D01*
X8291Y10212D01*
X7610Y10088D01*
X6935Y9934D01*
X6267Y9749D01*
X5609Y9535D01*
X4961Y9292D01*
X4324Y9019D01*
X3700Y8718D01*
X3091Y8390D01*
X2497Y8034D01*
X1919Y7653D01*
X1359Y7245D01*
X818Y6813D01*
X297Y6357D01*
X-203Y5878D01*
X-681Y5377D01*
X-1136Y4855D01*
X-1355Y4586D01*
X-12845Y9945D01*
Y9945D01*
Y9945D01*
D01*
X-12607Y10320D01*
X-12107Y11055D01*
X-11583Y11773D01*
X-11038Y12474D01*
X-10469Y13158D01*
X-9880Y13823D01*
X-9270Y14469D01*
X-8639Y15096D01*
X-7989Y15702D01*
X-7320Y16287D01*
X-6632Y16850D01*
X-5927Y17391D01*
X-5205Y17910D01*
X-4467Y18405D01*
X-3714Y18876D01*
X-2946Y19323D01*
X-2163Y19746D01*
X-1368Y20143D01*
X-561Y20515D01*
X258Y20861D01*
X1087Y21181D01*
X1926Y21474D01*
X2774Y21740D01*
X3630Y21979D01*
X4493Y22190D01*
X5363Y22375D01*
X6238Y22531D01*
X7118Y22659D01*
X8001Y22759D01*
X8886Y22831D01*
X9774Y22875D01*
X10663Y22891D01*
X11552Y22878D01*
X12439Y22837D01*
X13326Y22767D01*
X14209Y22670D01*
X15089Y22544D01*
X15964Y22390D01*
X16835Y22209D01*
X17698Y22000D01*
X18555Y21763D01*
X19404Y21500D01*
X20244Y21209D01*
X21074Y20892D01*
X21894Y20549D01*
X22702Y20179D01*
X23499Y19784D01*
X24282Y19364D01*
X25051Y18919D01*
X25806Y18450D01*
X26546Y17957D01*
X27270Y17441D01*
X27976Y16902D01*
X28665Y16341D01*
X29336Y15758D01*
X29988Y15154D01*
X30621Y14529D01*
X31233Y13885D01*
X31824Y13221D01*
X32394Y12539D01*
X32942Y11840D01*
X33468Y11123D01*
X33970Y10389D01*
X34449Y9640D01*
X34676Y9258D01*
X22518Y3589D01*
X22518Y3589D01*
X22331Y3840D01*
X21942Y4329D01*
X21532Y4802D01*
X21102Y5256D01*
X20654Y5691D01*
X20187Y6107D01*
X19702Y6503D01*
X19202Y6877D01*
X18685Y7230D01*
X18154Y7560D01*
X17609Y7868D01*
X17052Y8151D01*
X16483Y8411D01*
X15904Y8646D01*
X15315Y8856D01*
X14717Y9040D01*
X14112Y9199D01*
X13501Y9332D01*
X12885Y9438D01*
X12265Y9518D01*
X11642Y9572D01*
X11017Y9599D01*
X10392D01*
X9767Y9572D01*
X9144Y9518D01*
X8524Y9438D01*
X7908Y9332D01*
X7297Y9199D01*
X6692Y9040D01*
X6095Y8856D01*
X5505Y8646D01*
X4926Y8411D01*
X4357Y8151D01*
X3800Y7868D01*
X3255Y7560D01*
X2724Y7230D01*
X2208Y6877D01*
X1707Y6503D01*
X1223Y6107D01*
X756Y5691D01*
X307Y5256D01*
X-123Y4802D01*
X-533Y4329D01*
X-922Y3840D01*
X-1109Y3589D01*
X-13995Y9598D01*
X-13995Y9598D01*
X-13756Y10004D01*
X-13250Y10799D01*
X-12718Y11577D01*
X-12161Y12337D01*
X-11579Y13078D01*
X-10973Y13800D01*
X-10344Y14501D01*
X-9692Y15182D01*
X-9018Y15841D01*
X-8323Y16477D01*
X-7607Y17090D01*
X-6872Y17679D01*
X-6118Y18244D01*
X-5345Y18784D01*
X-4556Y19298D01*
X-3749Y19786D01*
X-2928Y20247D01*
X-2091Y20681D01*
X-1241Y21087D01*
X-378Y21465D01*
X497Y21814D01*
X1383Y22135D01*
X2280Y22426D01*
X3185Y22688D01*
X4098Y22920D01*
X5019Y23122D01*
X5945Y23294D01*
X6877Y23435D01*
X7813Y23545D01*
X8752Y23625D01*
X9693Y23673D01*
X10635Y23691D01*
X11577Y23678D01*
X12518Y23634D01*
X13458Y23559D01*
X14394Y23453D01*
X15327Y23316D01*
X16254Y23149D01*
X17175Y22952D01*
X18090Y22725D01*
X18996Y22467D01*
X19894Y22180D01*
X20782Y21864D01*
X21658Y21519D01*
X22523Y21145D01*
X23376Y20742D01*
X24214Y20313D01*
X25038Y19855D01*
X25847Y19372D01*
X26639Y18861D01*
X27414Y18325D01*
X28171Y17764D01*
X28909Y17178D01*
X29628Y16569D01*
X30326Y15936D01*
X31003Y15281D01*
X31658Y14603D01*
X32291Y13905D01*
X32900Y13186D01*
X33485Y12448D01*
X34046Y11690D01*
X34582Y10915D01*
X35092Y10123D01*
X35575Y9314D01*
X35804Y8902D01*
X22244Y2579D01*
X22244Y2579D01*
X22071Y2836D01*
X21707Y3339D01*
X21321Y3825D01*
X20913Y4294D01*
X20484Y4743D01*
X20036Y5173D01*
X19569Y5582D01*
X19084Y5970D01*
X18582Y6335D01*
X18064Y6678D01*
X17532Y6997D01*
X16985Y7291D01*
X16426Y7561D01*
X15855Y7806D01*
X15274Y8024D01*
X14684Y8217D01*
X14085Y8382D01*
X13480Y8520D01*
X12869Y8631D01*
X12254Y8715D01*
X11635Y8771D01*
X11015Y8799D01*
X10394D01*
X9774Y8771D01*
X9155Y8715D01*
X8540Y8631D01*
X7929Y8520D01*
X7324Y8382D01*
X6726Y8217D01*
X6135Y8024D01*
X5554Y7806D01*
X4983Y7561D01*
X4424Y7291D01*
X3878Y6997D01*
X3345Y6678D01*
X2827Y6335D01*
X2325Y5970D01*
X1840Y5582D01*
X1373Y5173D01*
X925Y4743D01*
X496Y4294D01*
X89Y3825D01*
X-298Y3339D01*
X-662Y2836D01*
X-835Y2579D01*
X-15121Y9240D01*
Y9240D01*
Y9240D01*
D01*
X-14895Y9651D01*
X-14416Y10457D01*
X-13912Y11247D01*
X-13383Y12021D01*
X-12830Y12777D01*
X-12253Y13516D01*
X-11654Y14236D01*
X-11031Y14936D01*
X-10386Y15616D01*
X-9721Y16276D01*
X-9034Y16914D01*
X-8328Y17530D01*
X-7602Y18123D01*
X-6858Y18693D01*
X-6097Y19239D01*
X-5318Y19760D01*
X-4523Y20257D01*
X-3713Y20728D01*
X-2888Y21173D01*
X-2049Y21591D01*
X-1198Y21983D01*
X-335Y22347D01*
X540Y22684D01*
X1425Y22993D01*
X2319Y23274D01*
X3222Y23526D01*
X4132Y23749D01*
X5049Y23944D01*
X5971Y24109D01*
X6899Y24244D01*
X7830Y24350D01*
X8764Y24427D01*
X9700Y24474D01*
X10637Y24491D01*
X11574Y24478D01*
X12510Y24435D01*
X13444Y24363D01*
X14376Y24261D01*
X15304Y24130D01*
X16227Y23969D01*
X17145Y23779D01*
X18056Y23560D01*
X18960Y23312D01*
X19855Y23036D01*
X20742Y22731D01*
X21618Y22398D01*
X22483Y22038D01*
X23336Y21650D01*
X24176Y21235D01*
X25003Y20794D01*
X25816Y20327D01*
X26613Y19834D01*
X27394Y19316D01*
X28158Y18774D01*
X28905Y18207D01*
X29633Y17617D01*
X30342Y17005D01*
X31032Y16370D01*
X31700Y15713D01*
X32348Y15036D01*
X32974Y14338D01*
X33577Y13621D01*
X34157Y12885D01*
X34714Y12131D01*
X35246Y11360D01*
X35754Y10572D01*
X36236Y9769D01*
X36693Y8950D01*
X36908Y8534D01*
X21939Y1554D01*
X21939Y1554D01*
X21781Y1818D01*
X21445Y2335D01*
X21085Y2835D01*
X20702Y3318D01*
X20297Y3782D01*
X19870Y4226D01*
X19422Y4650D01*
X18955Y5052D01*
X18469Y5431D01*
X17966Y5787D01*
X17447Y6119D01*
X16912Y6426D01*
X16364Y6707D01*
X15803Y6962D01*
X15230Y7190D01*
X14648Y7390D01*
X14056Y7563D01*
X13457Y7708D01*
X12852Y7824D01*
X12242Y7911D01*
X11628Y7969D01*
X11013Y7998D01*
X10396D01*
X9781Y7969D01*
X9167Y7911D01*
X8557Y7824D01*
X7952Y7708D01*
X7353Y7563D01*
X6762Y7390D01*
X6179Y7190D01*
X5606Y6962D01*
X5045Y6707D01*
X4497Y6426D01*
X3962Y6119D01*
X3443Y5787D01*
X2940Y5431D01*
X2454Y5052D01*
X1987Y4650D01*
X1540Y4226D01*
X1113Y3782D01*
X707Y3318D01*
X324Y2835D01*
X-36Y2335D01*
X-371Y1818D01*
X-530Y1554D01*
X-16224Y8872D01*
Y8872D01*
Y8872D01*
D01*
X-16011Y9287D01*
X-15558Y10102D01*
X-15080Y10903D01*
X-14579Y11689D01*
X-14053Y12459D01*
X-13503Y13213D01*
X-12931Y13949D01*
X-12337Y14668D01*
X-11720Y15367D01*
X-11083Y16048D01*
X-10424Y16708D01*
X-9746Y17348D01*
X-9048Y17967D01*
X-8332Y18564D01*
X-7597Y19139D01*
X-6845Y19691D01*
X-6077Y20219D01*
X-5293Y20723D01*
X-4493Y21204D01*
X-3679Y21659D01*
X-2852Y22089D01*
X-2011Y22493D01*
X-1159Y22872D01*
X-295Y23223D01*
X579Y23549D01*
X1462Y23847D01*
X2355Y24117D01*
X3255Y24361D01*
X4162Y24576D01*
X5076Y24763D01*
X5995Y24922D01*
X6918Y25053D01*
X7845Y25155D01*
X8775Y25229D01*
X9706Y25274D01*
X10639Y25291D01*
X11571Y25278D01*
D02*
G37*
%LPC*%
G36*
X-1870Y7034D02*
X-1870Y7034D01*
X-1870Y7034D01*
D01*
D02*
G37*
%LPD*%
D11*
X-24500Y11500D02*
D03*
D13*
X29242Y10697D02*
G03*
X3839Y18297I-18537J-15706D01*
G01*
X29880Y10553D02*
G03*
X3439Y18594I-19176J-15562D01*
G01*
Y17749D02*
G03*
X3839Y17749I200J-980D01*
G01*
X22764Y4586D02*
G03*
X-1355Y4586I-12059J-9595D01*
G01*
X22644Y4089D02*
G03*
X-1235Y4089I-11940J-9098D01*
G01*
X22096Y2068D02*
G03*
X-687Y2068I-11391J-7077D01*
G01*
X21939Y1554D02*
G03*
X-530Y1554I-11235J-6563D01*
G01*
X21773Y1035D02*
G03*
X-364Y1035I-11068J-6044D01*
G01*
X22518Y3589D02*
G03*
X-1109Y3589I-11813J-8598D01*
G01*
X22385Y3086D02*
G03*
X-976Y3086I-11680J-8095D01*
G01*
X22244Y2579D02*
G03*
X-835Y2579I-11540J-7588D01*
G01*
X21597Y511D02*
G03*
X-187Y511I-10892J-5520D01*
G01*
X35804Y8902D02*
G03*
X-13995Y9598I-25099J-13911D01*
G01*
X35243Y9082D02*
G03*
X-13423Y9773I-24538J-14090D01*
G01*
X36908Y8534D02*
G03*
X-15121Y9240I-26203J-13543D01*
G01*
X36359Y8719D02*
G03*
X-14561Y9421I-25654J-13728D01*
G01*
X37991Y8156D02*
G03*
X-16224Y8872I-27286J-13165D01*
G01*
X37452Y8346D02*
G03*
X-15675Y9058I-26747J-13355D01*
G01*
X32342Y9935D02*
G03*
X-10459Y10598I-21637J-14944D01*
G01*
X31739Y10096D02*
G03*
X-9843Y10751I-21035J-15105D01*
G01*
X33523Y9604D02*
G03*
X-11667Y10278I-22818J-14613D01*
G01*
X32936Y9771D02*
G03*
X-11067Y10440I-22231J-14780D01*
G01*
X34103Y9433D02*
G03*
X-12260Y10113I-23398J-14442D01*
G01*
X34676Y9258D02*
G03*
X-12845Y9945I-23971J-14267D01*
G01*
X30509Y10405D02*
G03*
X-8583Y11047I-19805J-15414D01*
G01*
X23452Y7997D02*
G03*
X-2043Y7997I-12747J-13006D01*
G01*
X31129Y10253D02*
G03*
X-9218Y10901I-20424J-15261D01*
G01*
X23186Y6549D02*
G03*
X-1777Y6549I-12482J-11558D01*
G01*
X23088Y6062D02*
G03*
X-1679Y6062I-12384J-11071D01*
G01*
X22986Y5573D02*
G03*
X-1577Y5573I-12281J-10582D01*
G01*
X22878Y5081D02*
G03*
X-1468Y5081I-12173J-10090D01*
G01*
X23368Y7516D02*
G03*
X-1958Y7516I-12663J-12525D01*
G01*
X23279Y7034D02*
G03*
X-1870Y7034I-12575J-12043D01*
G01*
X31129Y10253D02*
X31129D01*
X23279Y7034D02*
X30509Y10405D01*
X23279Y7034D02*
X23279D01*
X23186Y6549D02*
X31129Y10253D01*
X23186Y6549D02*
X23186D01*
X37991Y8156D02*
X37991D01*
X35243Y9082D02*
X35243D01*
X31739Y10096D02*
X31739D01*
X35804Y8902D02*
X35804D01*
X22878Y5081D02*
X32936Y9771D01*
X22878Y5081D02*
X22878D01*
X23089Y6062D02*
X31739Y10096D01*
X23088Y6062D02*
X23089D01*
X22986Y5573D02*
X32342Y9935D01*
X22986Y5573D02*
X22986D01*
X23452Y7997D02*
X29242Y10697D01*
X3839Y18297D02*
Y18297D01*
Y17749D02*
Y18297D01*
X3439Y17749D02*
Y18594D01*
X29880Y10553D02*
X29881D01*
X23368Y7516D02*
X29880Y10553D01*
X22764Y4586D02*
X33523Y9604D01*
X22644Y4089D02*
X34103Y9433D01*
X22518Y3589D02*
X34676Y9258D01*
X22518Y3589D02*
X22518D01*
X22385Y3086D02*
X35243Y9082D01*
X22244Y2579D02*
X35804Y8902D01*
X22096Y2068D02*
X36359Y8719D01*
X21939Y1554D02*
X36908Y8534D01*
X21597Y511D02*
X37991Y8156D01*
X21773Y1035D02*
X37452Y8346D01*
X22385Y3086D02*
X22385D01*
X21597Y511D02*
X21597D01*
X-187D02*
X-187D01*
X-8583Y11047D02*
X-2043Y7997D01*
X-9218Y10901D02*
X-1958Y7516D01*
X-13423Y9773D02*
X-13423D01*
X-1109Y3589D02*
X-1109D01*
X-13995Y9598D02*
X-1109Y3589D01*
X-18838Y9650D02*
X-364Y1035D01*
X-15121Y9240D02*
X-835Y2579D01*
X-976Y3086D02*
X-976D01*
X-14561Y9421D02*
X-976Y3086D01*
X-16224Y8872D02*
X-530Y1554D01*
X-15675Y9058D02*
X-687Y2068D01*
X-18949Y9260D02*
X-187Y511D01*
X-1777Y6549D02*
X-1777D01*
X-10459Y10598D02*
X-1777Y6549D01*
X-9843Y10751D02*
X-1870Y7034D01*
X-11067Y10440D02*
X-1679Y6062D01*
X-1468Y5081D02*
X-1468D01*
X-12260Y10113D02*
X-1468Y5081D01*
X-1577Y5573D02*
X-1577D01*
X-11667Y10278D02*
X-1577Y5573D01*
X-13423Y9773D02*
X-1235Y4089D01*
X-12845Y9945D02*
X-1355Y4586D01*
X-1679Y6062D02*
X-1679D01*
X-1870Y7034D02*
X-1870D01*
X-19007Y9287D02*
X-18949Y9260D01*
D14*
X-24500Y11500D02*
X-18922Y9468D01*
D16*
X40163Y10483D02*
D03*
X3645Y16772D02*
D03*
X10705Y18087D02*
D03*
M02*
