G04*
G04 #@! TF.GenerationSoftware,Altium Limited,Altium Designer,22.6.1 (34)*
G04*
G04 Layer_Physical_Order=1*
G04 Layer_Color=255*
%FSLAX25Y25*%
%MOIN*%
G70*
G04*
G04 #@! TF.SameCoordinates,9D7DB20D-DC87-410F-8539-F79083AAF036*
G04*
G04*
G04 #@! TF.FilePolarity,Positive*
G04*
G01*
G75*
G04:AMPARAMS|DCode=11|XSize=47.24mil|YSize=47.24mil|CornerRadius=11.81mil|HoleSize=0mil|Usage=FLASHONLY|Rotation=70.000|XOffset=0mil|YOffset=0mil|HoleType=Round|Shape=RoundedRectangle|*
%AMROUNDEDRECTD11*
21,1,0.04724,0.02362,0,0,70.0*
21,1,0.02362,0.04724,0,0,70.0*
1,1,0.02362,0.01514,0.00706*
1,1,0.02362,0.00706,-0.01514*
1,1,0.02362,-0.01514,-0.00706*
1,1,0.02362,-0.00706,0.01514*
%
%ADD11ROUNDEDRECTD11*%
%ADD13C,0.00050*%
%ADD14C,0.00400*%
%ADD15C,0.00600*%
%ADD16C,0.01600*%
G36*
X11152Y26085D02*
X11648Y26074D01*
X12143Y26055D01*
X12637Y26028D01*
X13131Y25993D01*
X13625Y25951D01*
X14118Y25900D01*
X14610Y25842D01*
X15101Y25776D01*
X15591Y25702D01*
X16079Y25620D01*
X16567Y25530D01*
X17052Y25433D01*
X17536Y25328D01*
X18019Y25216D01*
X18499Y25095D01*
X18978Y24967D01*
X19454Y24832D01*
X19929Y24689D01*
X20401Y24538D01*
X20870Y24380D01*
X21337Y24214D01*
X21801Y24041D01*
X22263Y23860D01*
X22721Y23673D01*
X23176Y23478D01*
X23629Y23275D01*
X24078Y23066D01*
X24523Y22849D01*
X24965Y22625D01*
X25403Y22395D01*
X25838Y22157D01*
X26269Y21913D01*
X26696Y21661D01*
X27119Y21403D01*
X27537Y21138D01*
X27952Y20867D01*
X28362Y20589D01*
X28767Y20304D01*
X29168Y20013D01*
X29565Y19716D01*
X29956Y19412D01*
X30343Y19103D01*
X30724Y18787D01*
X31101Y18465D01*
X31472Y18137D01*
X31838Y17803D01*
X32199Y17464D01*
X32554Y17118D01*
X32904Y16767D01*
X33248Y16411D01*
X33586Y16049D01*
X33919Y15682D01*
X34246Y15310D01*
X34566Y14932D01*
X34881Y14549D01*
X35190Y14162D01*
X35492Y13769D01*
X35788Y13372D01*
X36077Y12970D01*
X36361Y12564D01*
X36637Y12153D01*
X36907Y11737D01*
X37171Y11318D01*
X37428Y10894D01*
X37677Y10466D01*
X37921Y10035D01*
X38157Y9599D01*
X38386Y9160D01*
X38608Y8717D01*
X38716Y8494D01*
X38716Y8494D01*
X38716Y8494D01*
D01*
X21597Y511D01*
X21527Y647D01*
X21382Y917D01*
X21230Y1182D01*
X21072Y1443D01*
X20907Y1701D01*
X20736Y1954D01*
X20558Y2203D01*
X20374Y2448D01*
X20185Y2688D01*
X19989Y2922D01*
X19788Y3152D01*
X19580Y3377D01*
X19368Y3597D01*
X19150Y3811D01*
X18926Y4020D01*
X18698Y4223D01*
X18464Y4420D01*
X18225Y4611D01*
X17982Y4797D01*
X17734Y4976D01*
X17482Y5148D01*
X17226Y5315D01*
X16965Y5475D01*
X16701Y5629D01*
X16433Y5775D01*
X16161Y5915D01*
X15886Y6048D01*
X15607Y6175D01*
X15326Y6294D01*
X15041Y6406D01*
X14754Y6511D01*
X14464Y6609D01*
X14172Y6699D01*
X13878Y6782D01*
X13582Y6858D01*
X13284Y6927D01*
X12984Y6987D01*
X12683Y7041D01*
X12381Y7086D01*
X12078Y7125D01*
X11773Y7155D01*
X11468Y7178D01*
X11163Y7193D01*
X10858Y7201D01*
X10552D01*
X10246Y7193D01*
X9941Y7178D01*
X9636Y7155D01*
X9332Y7125D01*
X9028Y7086D01*
X8726Y7041D01*
X8425Y6987D01*
X8125Y6927D01*
X7827Y6858D01*
X7531Y6782D01*
X7237Y6699D01*
X6945Y6609D01*
X6655Y6511D01*
X6368Y6406D01*
X6084Y6294D01*
X5802Y6175D01*
X5524Y6048D01*
X5248Y5915D01*
X4977Y5775D01*
X4708Y5629D01*
X4444Y5475D01*
X4183Y5315D01*
X3927Y5148D01*
X3675Y4976D01*
X3427Y4797D01*
X3184Y4611D01*
X2945Y4420D01*
X2712Y4223D01*
X2483Y4020D01*
X2260Y3811D01*
X2042Y3597D01*
X1829Y3377D01*
X1622Y3152D01*
X1420Y2922D01*
X1225Y2688D01*
X1035Y2448D01*
X851Y2203D01*
X674Y1954D01*
X502Y1701D01*
X338Y1443D01*
X179Y1182D01*
X28Y917D01*
X-117Y647D01*
X-187Y511D01*
Y511D01*
X-16581Y8156D01*
X-16477Y8372D01*
X-16262Y8801D01*
X-16040Y9226D01*
X-15811Y9647D01*
X-15576Y10065D01*
X-15334Y10479D01*
X-15086Y10889D01*
X-14831Y11296D01*
X-14570Y11698D01*
X-14302Y12096D01*
X-14028Y12489D01*
X-13748Y12879D01*
X-13462Y13264D01*
X-13170Y13644D01*
X-12871Y14019D01*
X-12567Y14390D01*
X-12257Y14756D01*
X-11942Y15117D01*
X-11620Y15473D01*
X-11293Y15824D01*
X-10961Y16170D01*
X-10623Y16510D01*
X-10279Y16845D01*
X-9931Y17174D01*
X-9577Y17498D01*
X-9218Y17816D01*
X-8855Y18129D01*
X-8486Y18435D01*
X-8112Y18736D01*
X-7734Y19031D01*
X-7351Y19320D01*
X-6964Y19603D01*
X-6572Y19879D01*
X-6176Y20150D01*
X-5776Y20414D01*
X-5371Y20671D01*
X-4963Y20922D01*
X-4550Y21167D01*
X-4134Y21405D01*
X-3714Y21637D01*
X-3291Y21862D01*
X-2864Y22080D01*
X-2433Y22291D01*
X-1999Y22496D01*
X-1562Y22694D01*
X-1122Y22884D01*
X-679Y23068D01*
X-233Y23245D01*
X215Y23414D01*
X666Y23577D01*
X1120Y23732D01*
X1576Y23880D01*
X2035Y24021D01*
X2495Y24155D01*
X2958Y24281D01*
X3422Y24400D01*
X3889Y24511D01*
X4357Y24616D01*
X4827Y24712D01*
X5298Y24802D01*
X5771Y24883D01*
X6244Y24958D01*
X6719Y25025D01*
X7195Y25084D01*
X7672Y25136D01*
X8149Y25180D01*
X8628Y25217D01*
X9106Y25246D01*
X9585Y25267D01*
X10065Y25281D01*
X10544Y25288D01*
X11024Y25286D01*
X11503Y25278D01*
X11983Y25261D01*
X12462Y25237D01*
X12940Y25205D01*
X13418Y25166D01*
X13895Y25120D01*
X14372Y25065D01*
X14848Y25003D01*
X15322Y24934D01*
X15795Y24857D01*
X16267Y24773D01*
X16738Y24681D01*
X17207Y24582D01*
X17675Y24475D01*
X18141Y24361D01*
X18605Y24240D01*
X19067Y24111D01*
X19527Y23975D01*
X19984Y23832D01*
X20440Y23681D01*
X20893Y23524D01*
X21343Y23359D01*
X21791Y23187D01*
X22235Y23008D01*
X22678Y22822D01*
X23117Y22629D01*
X23552Y22429D01*
X23985Y22222D01*
X24415Y22008D01*
X24840Y21788D01*
X25263Y21561D01*
X25682Y21327D01*
X26097Y21087D01*
X26508Y20840D01*
X26915Y20587D01*
X27318Y20327D01*
X27717Y20061D01*
X28112Y19788D01*
X28502Y19510D01*
X28888Y19225D01*
X29269Y18934D01*
X29646Y18637D01*
X30018Y18334D01*
X30385Y18026D01*
X30747Y17711D01*
X31104Y17391D01*
X31456Y17065D01*
X31803Y16734D01*
X32144Y16398D01*
X32481Y16056D01*
X32811Y15708D01*
X33136Y15356D01*
X33456Y14998D01*
X33770Y14636D01*
X34078Y14268D01*
X34380Y13896D01*
X34676Y13519D01*
X34967Y13137D01*
X35251Y12750D01*
X35529Y12360D01*
X35801Y11964D01*
X36066Y11565D01*
X36325Y11162D01*
X36578Y10754D01*
X36824Y10343D01*
X37064Y9927D01*
X37297Y9508D01*
X37524Y9085D01*
X37633Y8872D01*
X21939Y1554D01*
X21861Y1686D01*
X21699Y1949D01*
X21531Y2207D01*
X21357Y2461D01*
X21177Y2712D01*
X20992Y2958D01*
X20800Y3199D01*
X20603Y3436D01*
X20400Y3668D01*
X20192Y3895D01*
X19978Y4117D01*
X19760Y4334D01*
X19536Y4546D01*
X19307Y4752D01*
X19073Y4953D01*
X18835Y5149D01*
X18592Y5339D01*
X18345Y5522D01*
X18093Y5700D01*
X17838Y5872D01*
X17578Y6038D01*
X17315Y6198D01*
X17047Y6351D01*
X16777Y6498D01*
X16502Y6639D01*
X16225Y6773D01*
X15944Y6900D01*
X15661Y7021D01*
X15374Y7135D01*
X15086Y7242D01*
X14794Y7343D01*
X14501Y7436D01*
X14205Y7523D01*
X13907Y7602D01*
X13608Y7674D01*
X13306Y7739D01*
X13004Y7797D01*
X12700Y7848D01*
X12395Y7892D01*
X12089Y7928D01*
X11782Y7957D01*
X11475Y7979D01*
X11167Y7994D01*
X10859Y8001D01*
X10551D01*
X10243Y7994D01*
X9935Y7979D01*
X9627Y7957D01*
X9321Y7928D01*
X9015Y7892D01*
X8709Y7848D01*
X8406Y7797D01*
X8103Y7739D01*
X7802Y7674D01*
X7502Y7602D01*
X7204Y7523D01*
X6909Y7436D01*
X6615Y7343D01*
X6324Y7242D01*
X6035Y7135D01*
X5748Y7021D01*
X5465Y6900D01*
X5184Y6773D01*
X4907Y6639D01*
X4633Y6498D01*
X4362Y6351D01*
X4095Y6198D01*
X3831Y6038D01*
X3571Y5872D01*
X3316Y5700D01*
X3064Y5522D01*
X2817Y5339D01*
X2574Y5149D01*
X2336Y4953D01*
X2102Y4752D01*
X1874Y4546D01*
X1650Y4334D01*
X1431Y4117D01*
X1217Y3895D01*
X1009Y3668D01*
X807Y3436D01*
X609Y3199D01*
X418Y2958D01*
X232Y2712D01*
X52Y2461D01*
X-122Y2207D01*
X-290Y1949D01*
X-451Y1686D01*
X-530Y1554D01*
Y1554D01*
X-15499Y8534D01*
X-15388Y8748D01*
X-15159Y9173D01*
X-14924Y9595D01*
X-14681Y10012D01*
X-14432Y10426D01*
X-14176Y10835D01*
X-13913Y11240D01*
X-13644Y11641D01*
X-13368Y12037D01*
X-13086Y12429D01*
X-12798Y12816D01*
X-12503Y13198D01*
X-12202Y13575D01*
X-11894Y13948D01*
X-11581Y14315D01*
X-11262Y14677D01*
X-10937Y15034D01*
X-10606Y15386D01*
X-10269Y15732D01*
X-9927Y16072D01*
X-9579Y16407D01*
X-9226Y16736D01*
X-8867Y17059D01*
X-8504Y17377D01*
X-8135Y17688D01*
X-7761Y17993D01*
X-7382Y18292D01*
X-6998Y18585D01*
X-6610Y18872D01*
X-6216Y19152D01*
X-5819Y19426D01*
X-5417Y19693D01*
X-5010Y19953D01*
X-4600Y20207D01*
X-4185Y20454D01*
X-3766Y20695D01*
X-3343Y20928D01*
X-2917Y21154D01*
X-2487Y21374D01*
X-2054Y21586D01*
X-1617Y21791D01*
X-1176Y21990D01*
X-733Y22180D01*
X-286Y22364D01*
X163Y22540D01*
X615Y22709D01*
X1070Y22870D01*
X1528Y23024D01*
X1988Y23171D01*
X2450Y23310D01*
X2915Y23441D01*
X3381Y23564D01*
X3850Y23681D01*
X4320Y23789D01*
X4793Y23889D01*
X5266Y23982D01*
X5742Y24068D01*
X6218Y24145D01*
X6696Y24214D01*
X7175Y24276D01*
X7654Y24330D01*
X8135Y24376D01*
X8616Y24414D01*
X9098Y24444D01*
X9580Y24467D01*
X10063Y24481D01*
X10545Y24488D01*
X11028Y24486D01*
X11511Y24477D01*
X11993Y24460D01*
X12475Y24435D01*
X12957Y24402D01*
X13438Y24361D01*
X13918Y24313D01*
X14398Y24256D01*
X14876Y24192D01*
X15354Y24119D01*
X15830Y24039D01*
X16304Y23952D01*
X16778Y23856D01*
X17249Y23753D01*
X17719Y23642D01*
X18187Y23523D01*
X18653Y23397D01*
X19117Y23263D01*
X19578Y23122D01*
X20038Y22973D01*
X20494Y22816D01*
X20948Y22652D01*
X21400Y22481D01*
X21848Y22302D01*
X22294Y22116D01*
X22736Y21923D01*
X23175Y21722D01*
X23611Y21515D01*
X24043Y21300D01*
X24472Y21078D01*
X24897Y20849D01*
X25318Y20614D01*
X25736Y20371D01*
X26149Y20122D01*
X26558Y19865D01*
X26963Y19603D01*
X27364Y19333D01*
X27760Y19057D01*
X28152Y18775D01*
X28539Y18486D01*
X28921Y18191D01*
X29298Y17890D01*
X29670Y17583D01*
X30037Y17269D01*
X30399Y16950D01*
X30756Y16625D01*
X31107Y16294D01*
X31453Y15957D01*
X31794Y15615D01*
X32128Y15267D01*
X32457Y14913D01*
X32781Y14555D01*
X33098Y14191D01*
X33409Y13822D01*
X33714Y13447D01*
X34013Y13069D01*
X34306Y12685D01*
X34592Y12296D01*
X34872Y11903D01*
X35146Y11505D01*
X35413Y11103D01*
X35673Y10696D01*
X35927Y10285D01*
X36174Y9871D01*
X36414Y9452D01*
X36530Y9240D01*
X36530Y9240D01*
X36530Y9240D01*
D01*
X22244Y2579D01*
X22154Y2714D01*
X21969Y2982D01*
X21778Y3245D01*
X21581Y3503D01*
X21377Y3757D01*
X21168Y4006D01*
X20953Y4250D01*
X20732Y4489D01*
X20505Y4722D01*
X20273Y4950D01*
X20036Y5173D01*
X19794Y5390D01*
X19546Y5601D01*
X19294Y5806D01*
X19037Y6005D01*
X18775Y6199D01*
X18509Y6385D01*
X18239Y6566D01*
X17964Y6740D01*
X17685Y6908D01*
X17403Y7069D01*
X17117Y7224D01*
X16827Y7371D01*
X16533Y7512D01*
X16237Y7646D01*
X15937Y7772D01*
X15635Y7892D01*
X15330Y8005D01*
X15022Y8110D01*
X14712Y8208D01*
X14400Y8299D01*
X14085Y8382D01*
X13769Y8458D01*
X13451Y8526D01*
X13131Y8587D01*
X12811Y8641D01*
X12489Y8686D01*
X12166Y8725D01*
X11842Y8755D01*
X11517Y8778D01*
X11192Y8794D01*
X10867Y8801D01*
X10542D01*
X10217Y8794D01*
X9892Y8778D01*
X9567Y8755D01*
X9244Y8725D01*
X8921Y8686D01*
X8599Y8641D01*
X8278Y8587D01*
X7958Y8526D01*
X7640Y8458D01*
X7324Y8382D01*
X7010Y8299D01*
X6697Y8208D01*
X6387Y8110D01*
X6079Y8005D01*
X5774Y7892D01*
X5472Y7772D01*
X5172Y7646D01*
X4876Y7512D01*
X4583Y7371D01*
X4293Y7224D01*
X4007Y7069D01*
X3724Y6908D01*
X3445Y6740D01*
X3171Y6566D01*
X2900Y6385D01*
X2634Y6199D01*
X2372Y6005D01*
X2115Y5806D01*
X1863Y5601D01*
X1616Y5390D01*
X1373Y5173D01*
X1136Y4950D01*
X904Y4722D01*
X678Y4489D01*
X457Y4250D01*
X242Y4006D01*
X32Y3757D01*
X-171Y3503D01*
X-369Y3245D01*
X-560Y2982D01*
X-745Y2714D01*
X-835Y2579D01*
Y2579D01*
X-14394Y8902D01*
X-14280Y9108D01*
X-14045Y9516D01*
X-13803Y9920D01*
X-13555Y10321D01*
X-13300Y10717D01*
X-13038Y11109D01*
X-12771Y11496D01*
X-12497Y11880D01*
X-12216Y12258D01*
X-11930Y12632D01*
X-11637Y13001D01*
X-11338Y13366D01*
X-11034Y13725D01*
X-10723Y14079D01*
X-10407Y14429D01*
X-10085Y14773D01*
X-9757Y15111D01*
X-9424Y15444D01*
X-9086Y15772D01*
X-8742Y16094D01*
X-8393Y16411D01*
X-8039Y16721D01*
X-7679Y17026D01*
X-7315Y17325D01*
X-6946Y17618D01*
X-6572Y17904D01*
X-6194Y18185D01*
X-5811Y18459D01*
X-5423Y18727D01*
X-5032Y18989D01*
X-4635Y19244D01*
X-4235Y19492D01*
X-3831Y19734D01*
X-3423Y19970D01*
X-3011Y20198D01*
X-2595Y20420D01*
X-2176Y20635D01*
X-1753Y20843D01*
X-1327Y21044D01*
X-898Y21238D01*
X-465Y21425D01*
X-30Y21605D01*
X409Y21777D01*
X850Y21943D01*
X1293Y22101D01*
X1740Y22252D01*
X2189Y22395D01*
X2640Y22531D01*
X3093Y22660D01*
X3548Y22781D01*
X4005Y22895D01*
X4464Y23001D01*
X4925Y23100D01*
X5387Y23191D01*
X5851Y23275D01*
X6316Y23350D01*
X6782Y23419D01*
X7249Y23479D01*
X7717Y23532D01*
X8186Y23577D01*
X8656Y23615D01*
X9126Y23645D01*
X9597Y23667D01*
X10068Y23681D01*
X10539Y23688D01*
X11010Y23686D01*
X11481Y23677D01*
X11952Y23661D01*
X12422Y23637D01*
X12892Y23605D01*
X13362Y23565D01*
X13830Y23517D01*
X14298Y23462D01*
X14765Y23399D01*
X15231Y23329D01*
X15696Y23251D01*
X16159Y23165D01*
X16621Y23072D01*
X17081Y22971D01*
X17539Y22862D01*
X17996Y22746D01*
X18451Y22623D01*
X18903Y22492D01*
X19354Y22354D01*
X19802Y22208D01*
X20247Y22055D01*
X20690Y21895D01*
X21131Y21727D01*
X21568Y21552D01*
X22003Y21370D01*
X22434Y21181D01*
X22863Y20985D01*
X23288Y20782D01*
X23709Y20572D01*
X24128Y20355D01*
X24542Y20131D01*
X24953Y19901D01*
X25360Y19663D01*
X25763Y19420D01*
X26162Y19169D01*
X26557Y18912D01*
X26948Y18649D01*
X27334Y18379D01*
X27716Y18103D01*
X28093Y17820D01*
X28465Y17532D01*
X28833Y17237D01*
X29196Y16937D01*
X29553Y16630D01*
X29906Y16318D01*
X30254Y16000D01*
X30596Y15676D01*
X30933Y15346D01*
X31264Y15012D01*
X31590Y14671D01*
X31910Y14326D01*
X32225Y13975D01*
X32534Y13619D01*
X32837Y13258D01*
X33134Y12893D01*
X33424Y12522D01*
X33709Y12147D01*
X33988Y11767D01*
X34260Y11382D01*
X34526Y10993D01*
X34785Y10600D01*
X35038Y10203D01*
X35285Y9801D01*
X35405Y9598D01*
X35405Y9598D01*
X35405Y9598D01*
D01*
X22518Y3589D01*
X22421Y3721D01*
X22222Y3982D01*
X22018Y4237D01*
X21808Y4489D01*
X21592Y4735D01*
X21371Y4977D01*
X21144Y5213D01*
X20912Y5445D01*
X20675Y5671D01*
X20434Y5892D01*
X20187Y6107D01*
X19935Y6317D01*
X19679Y6521D01*
X19418Y6719D01*
X19153Y6912D01*
X18884Y7098D01*
X18610Y7279D01*
X18333Y7453D01*
X18052Y7621D01*
X17766Y7782D01*
X17478Y7937D01*
X17186Y8086D01*
X16891Y8228D01*
X16593Y8363D01*
X16291Y8492D01*
X15987Y8614D01*
X15680Y8729D01*
X15371Y8837D01*
X15060Y8938D01*
X14746Y9032D01*
X14430Y9119D01*
X14112Y9199D01*
X13793Y9272D01*
X13472Y9337D01*
X13150Y9396D01*
X12826Y9447D01*
X12502Y9491D01*
X12176Y9528D01*
X11850Y9557D01*
X11523Y9579D01*
X11196Y9594D01*
X10868Y9601D01*
X10541D01*
X10213Y9594D01*
X9886Y9579D01*
X9559Y9557D01*
X9233Y9528D01*
X8907Y9491D01*
X8583Y9447D01*
X8259Y9396D01*
X7937Y9337D01*
X7616Y9272D01*
X7297Y9199D01*
X6979Y9119D01*
X6663Y9032D01*
X6350Y8938D01*
X6038Y8837D01*
X5729Y8729D01*
X5422Y8614D01*
X5118Y8492D01*
X4817Y8363D01*
X4518Y8228D01*
X4223Y8086D01*
X3931Y7937D01*
X3643Y7782D01*
X3358Y7621D01*
X3077Y7453D01*
X2799Y7278D01*
X2526Y7098D01*
X2256Y6912D01*
X1991Y6719D01*
X1730Y6521D01*
X1474Y6317D01*
X1223Y6107D01*
X976Y5892D01*
X734Y5671D01*
X497Y5445D01*
X265Y5213D01*
X39Y4977D01*
X-183Y4735D01*
X-398Y4489D01*
X-609Y4237D01*
X-813Y3981D01*
X-1012Y3721D01*
X-1109Y3589D01*
X-13267Y9258D01*
X-13149Y9456D01*
X-12908Y9846D01*
X-12661Y10232D01*
X-12407Y10614D01*
X-12147Y10992D01*
X-11881Y11366D01*
X-11609Y11735D01*
X-11330Y12100D01*
X-11046Y12460D01*
X-10756Y12815D01*
X-10460Y13165D01*
X-10158Y13511D01*
X-9851Y13851D01*
X-9538Y14187D01*
X-9220Y14517D01*
X-8896Y14842D01*
X-8567Y15162D01*
X-8233Y15476D01*
X-7893Y15784D01*
X-7549Y16087D01*
X-7199Y16385D01*
X-6845Y16676D01*
X-6486Y16962D01*
X-6123Y17241D01*
X-5755Y17515D01*
X-5382Y17783D01*
X-5005Y18044D01*
X-4624Y18299D01*
X-4239Y18548D01*
X-3849Y18791D01*
X-3456Y19027D01*
X-3059Y19256D01*
X-2658Y19479D01*
X-2253Y19696D01*
X-1846Y19906D01*
X-1434Y20109D01*
X-1020Y20305D01*
X-602Y20494D01*
X-181Y20676D01*
X243Y20852D01*
X670Y21021D01*
X1099Y21182D01*
X1531Y21337D01*
X1965Y21484D01*
X2402Y21624D01*
X2841Y21757D01*
X3282Y21882D01*
X3725Y22001D01*
X4171Y22112D01*
X4617Y22216D01*
X5066Y22312D01*
X5516Y22401D01*
X5967Y22483D01*
X6420Y22557D01*
X6874Y22624D01*
X7328Y22683D01*
X7784Y22735D01*
X8241Y22779D01*
X8698Y22816D01*
X9156Y22845D01*
X9614Y22867D01*
X10073Y22881D01*
X10531Y22887D01*
X10990Y22886D01*
X11449Y22878D01*
X11907Y22862D01*
X12365Y22839D01*
X12823Y22807D01*
X13280Y22769D01*
X13736Y22723D01*
X14192Y22669D01*
X14647Y22608D01*
X15100Y22539D01*
X15552Y22464D01*
X16003Y22380D01*
X16453Y22289D01*
X16901Y22191D01*
X17348Y22085D01*
X17792Y21973D01*
X18235Y21852D01*
X18676Y21725D01*
X19114Y21590D01*
X19550Y21448D01*
X19984Y21299D01*
X20415Y21143D01*
X20844Y20980D01*
X21270Y20810D01*
X21693Y20633D01*
X22113Y20448D01*
X22530Y20257D01*
X22944Y20060D01*
X23355Y19855D01*
X23762Y19644D01*
X24166Y19425D01*
X24565Y19201D01*
X24962Y18970D01*
X25354Y18732D01*
X25742Y18488D01*
X26127Y18237D01*
X26507Y17981D01*
X26883Y17718D01*
X27254Y17449D01*
X27621Y17174D01*
X27984Y16892D01*
X28341Y16605D01*
X28694Y16312D01*
X29043Y16014D01*
X29386Y15709D01*
X29724Y15399D01*
X30057Y15084D01*
X30385Y14763D01*
X30707Y14437D01*
X31024Y14105D01*
X31336Y13769D01*
X31642Y13427D01*
X31942Y13080D01*
X32236Y12728D01*
X32525Y12372D01*
X32808Y12011D01*
X33085Y11645D01*
X33356Y11275D01*
X33621Y10900D01*
X33879Y10521D01*
X34131Y10138D01*
X34254Y9945D01*
X34254Y9945D01*
X34254Y9945D01*
X34254Y9945D01*
X22764Y4586D01*
X22655Y4721D01*
X22434Y4987D01*
X22206Y5248D01*
X21973Y5504D01*
X21734Y5755D01*
X21489Y6000D01*
X21239Y6239D01*
X20984Y6473D01*
X20723Y6701D01*
X20458Y6923D01*
X20187Y7139D01*
X19912Y7349D01*
X19632Y7553D01*
X19347Y7750D01*
X19059Y7941D01*
X18766Y8126D01*
X18469Y8303D01*
X18168Y8475D01*
X17863Y8639D01*
X17554Y8796D01*
X17242Y8947D01*
X16927Y9090D01*
X16609Y9226D01*
X16288Y9355D01*
X15964Y9477D01*
X15637Y9591D01*
X15308Y9699D01*
X14976Y9798D01*
X14642Y9890D01*
X14307Y9975D01*
X13969Y10052D01*
X13630Y10122D01*
X13289Y10184D01*
X12947Y10238D01*
X12604Y10285D01*
X12260Y10323D01*
X11915Y10354D01*
X11570Y10378D01*
X11224Y10393D01*
X10878Y10401D01*
X10531D01*
X10185Y10393D01*
X9839Y10378D01*
X9494Y10354D01*
X9149Y10323D01*
X8805Y10284D01*
X8462Y10238D01*
X8120Y10184D01*
X7779Y10122D01*
X7440Y10052D01*
X7103Y9975D01*
X6767Y9890D01*
X6433Y9798D01*
X6102Y9699D01*
X5772Y9591D01*
X5446Y9477D01*
X5122Y9355D01*
X4800Y9226D01*
X4482Y9090D01*
X4167Y8946D01*
X3855Y8796D01*
X3546Y8639D01*
X3242Y8474D01*
X2941Y8303D01*
X2644Y8126D01*
X2351Y7941D01*
X2062Y7750D01*
X1777Y7553D01*
X1497Y7349D01*
X1222Y7139D01*
X951Y6923D01*
X686Y6701D01*
X425Y6473D01*
X170Y6239D01*
X-80Y6000D01*
X-325Y5755D01*
X-564Y5504D01*
X-797Y5248D01*
X-1025Y4987D01*
X-1246Y4721D01*
X-1355Y4586D01*
X-1355Y4586D01*
X-12114Y9604D01*
X-11989Y9798D01*
X-11734Y10181D01*
X-11473Y10561D01*
X-11205Y10936D01*
X-10931Y11306D01*
X-10650Y11671D01*
X-10363Y12032D01*
X-10070Y12388D01*
X-9772Y12739D01*
X-9467Y13084D01*
X-9156Y13424D01*
X-8840Y13759D01*
X-8518Y14089D01*
X-8190Y14413D01*
X-7858Y14732D01*
X-7519Y15044D01*
X-7175Y15351D01*
X-6827Y15653D01*
X-6473Y15948D01*
X-6114Y16237D01*
X-5750Y16520D01*
X-5382Y16796D01*
X-5009Y17067D01*
X-4631Y17331D01*
X-4249Y17588D01*
X-3863Y17839D01*
X-3472Y18084D01*
X-3077Y18321D01*
X-2679Y18552D01*
X-2276Y18777D01*
X-1870Y18994D01*
X-1460Y19204D01*
X-1046Y19408D01*
X-629Y19604D01*
X-209Y19793D01*
X214Y19975D01*
X640Y20150D01*
X1070Y20317D01*
X1502Y20477D01*
X1936Y20630D01*
X2374Y20776D01*
X2813Y20913D01*
X3255Y21044D01*
X3699Y21167D01*
X4145Y21282D01*
X4593Y21390D01*
X5043Y21490D01*
X5495Y21582D01*
X5948Y21667D01*
X6402Y21744D01*
X6857Y21813D01*
X7314Y21875D01*
X7772Y21929D01*
X8230Y21975D01*
X8689Y22013D01*
X9149Y22043D01*
X9609Y22066D01*
X10070Y22081D01*
X10531Y22087D01*
X10991Y22086D01*
X11452Y22078D01*
X11913Y22061D01*
X12373Y22037D01*
X12832Y22004D01*
X13291Y21964D01*
X13750Y21916D01*
X14207Y21861D01*
X14663Y21797D01*
X15119Y21726D01*
X15573Y21647D01*
X16025Y21561D01*
X16476Y21466D01*
X16926Y21364D01*
X17373Y21255D01*
X17819Y21137D01*
X18262Y21013D01*
X18704Y20880D01*
X19143Y20741D01*
X19579Y20594D01*
X20013Y20439D01*
X20445Y20277D01*
X20873Y20108D01*
X21299Y19931D01*
X21722Y19747D01*
X22141Y19556D01*
X22557Y19358D01*
X22970Y19153D01*
X23379Y18941D01*
X23784Y18722D01*
X24186Y18496D01*
X24583Y18264D01*
X24977Y18024D01*
X25367Y17778D01*
X25752Y17526D01*
X26133Y17267D01*
X26510Y17001D01*
X26882Y16729D01*
X27249Y16451D01*
X27611Y16167D01*
X27969Y15876D01*
X28322Y15579D01*
X28669Y15277D01*
X29012Y14968D01*
X29349Y14654D01*
X29680Y14334D01*
X30007Y14009D01*
X30327Y13678D01*
X30642Y13342D01*
X30951Y13000D01*
X31254Y12653D01*
X31552Y12301D01*
X31843Y11944D01*
X32128Y11582D01*
X32407Y11216D01*
X32680Y10844D01*
X32947Y10468D01*
X33076Y10278D01*
X22986Y5573D01*
X22871Y5704D01*
X22638Y5963D01*
X22400Y6217D01*
X22156Y6466D01*
X21907Y6709D01*
X21652Y6947D01*
X21393Y7180D01*
X21128Y7406D01*
X20859Y7627D01*
X20585Y7843D01*
X20307Y8052D01*
X20024Y8256D01*
X19737Y8453D01*
X19446Y8644D01*
X19150Y8828D01*
X18851Y9007D01*
X18548Y9178D01*
X18241Y9344D01*
X17931Y9502D01*
X17617Y9654D01*
X17301Y9799D01*
X16981Y9938D01*
X16658Y10069D01*
X16333Y10194D01*
X16005Y10311D01*
X15675Y10421D01*
X15342Y10525D01*
X15007Y10621D01*
X14670Y10710D01*
X14332Y10791D01*
X13991Y10865D01*
X13649Y10932D01*
X13306Y10992D01*
X12962Y11044D01*
X12616Y11089D01*
X12270Y11126D01*
X11923Y11156D01*
X11575Y11179D01*
X11227Y11194D01*
X10879Y11201D01*
X10530D01*
X10182Y11194D01*
X9834Y11179D01*
X9487Y11156D01*
X9139Y11126D01*
X8793Y11089D01*
X8448Y11044D01*
X8103Y10992D01*
X7760Y10932D01*
X7418Y10865D01*
X7078Y10791D01*
X6739Y10710D01*
X6402Y10621D01*
X6067Y10525D01*
X5735Y10421D01*
X5404Y10311D01*
X5076Y10194D01*
X4751Y10069D01*
X4428Y9938D01*
X4108Y9799D01*
X3792Y9654D01*
X3478Y9502D01*
X3168Y9344D01*
X2861Y9178D01*
X2558Y9007D01*
X2259Y8828D01*
X1964Y8644D01*
X1672Y8453D01*
X1385Y8255D01*
X1102Y8052D01*
X824Y7843D01*
X550Y7627D01*
X281Y7406D01*
X16Y7180D01*
X-243Y6947D01*
X-497Y6709D01*
X-747Y6466D01*
X-991Y6217D01*
X-1229Y5963D01*
X-1462Y5704D01*
X-1577Y5573D01*
X-1577Y5573D01*
X-10932Y9935D01*
X-10805Y10119D01*
X-10545Y10482D01*
X-10279Y10841D01*
X-10007Y11195D01*
X-9729Y11544D01*
X-9445Y11889D01*
X-9155Y12228D01*
X-8860Y12563D01*
X-8558Y12892D01*
X-8252Y13217D01*
X-7940Y13536D01*
X-7622Y13850D01*
X-7299Y14159D01*
X-6971Y14461D01*
X-6638Y14759D01*
X-6300Y15051D01*
X-5957Y15336D01*
X-5609Y15616D01*
X-5256Y15890D01*
X-4899Y16158D01*
X-4538Y16420D01*
X-4171Y16676D01*
X-3801Y16925D01*
X-3427Y17168D01*
X-3048Y17405D01*
X-2665Y17636D01*
X-2279Y17859D01*
X-1889Y18076D01*
X-1495Y18287D01*
X-1098Y18491D01*
X-697Y18688D01*
X-293Y18878D01*
X114Y19061D01*
X524Y19238D01*
X937Y19407D01*
X1353Y19569D01*
X1772Y19724D01*
X2193Y19873D01*
X2617Y20013D01*
X3043Y20147D01*
X3471Y20274D01*
X3901Y20393D01*
X4334Y20505D01*
X4768Y20609D01*
X5204Y20706D01*
X5641Y20796D01*
X6080Y20878D01*
X6520Y20953D01*
X6962Y21020D01*
X7404Y21080D01*
X7847Y21132D01*
X8292Y21177D01*
X8737Y21214D01*
X9182Y21244D01*
X9628Y21266D01*
X10075Y21280D01*
X10521Y21287D01*
X10967Y21287D01*
X11414Y21278D01*
X11860Y21263D01*
X12306Y21239D01*
X12752Y21208D01*
X13196Y21170D01*
X13641Y21124D01*
X14084Y21070D01*
X14526Y21009D01*
X14967Y20940D01*
X15407Y20864D01*
X15846Y20780D01*
X16283Y20689D01*
X16719Y20591D01*
X17152Y20485D01*
X17584Y20372D01*
X18014Y20252D01*
X18442Y20124D01*
X18868Y19989D01*
X19291Y19847D01*
X19712Y19697D01*
X20130Y19541D01*
X20546Y19377D01*
X20958Y19207D01*
X21368Y19029D01*
X21774Y18845D01*
X22178Y18653D01*
X22578Y18455D01*
X22975Y18250D01*
X23368Y18038D01*
X23757Y17820D01*
X24143Y17595D01*
X24525Y17364D01*
X24903Y17126D01*
X25276Y16881D01*
X25646Y16631D01*
X26011Y16374D01*
X26372Y16111D01*
X26729Y15842D01*
X27080Y15567D01*
X27427Y15286D01*
X27770Y14999D01*
X28107Y14706D01*
X28439Y14408D01*
X28766Y14104D01*
X29088Y13795D01*
X29405Y13480D01*
X29716Y13160D01*
X30022Y12834D01*
X30322Y12504D01*
X30616Y12168D01*
X30905Y11828D01*
X31188Y11482D01*
X31465Y11132D01*
X31736Y10777D01*
X31869Y10598D01*
X23186Y6549D01*
X23060Y6684D01*
X22804Y6949D01*
X22542Y7208D01*
X22274Y7462D01*
X22001Y7710D01*
X21723Y7952D01*
X21439Y8187D01*
X21151Y8417D01*
X20857Y8640D01*
X20559Y8857D01*
X20256Y9067D01*
X19949Y9271D01*
X19637Y9468D01*
X19321Y9658D01*
X19001Y9842D01*
X18677Y10018D01*
X18350Y10187D01*
X18018Y10350D01*
X17684Y10504D01*
X17346Y10652D01*
X17005Y10792D01*
X16661Y10925D01*
X16314Y11051D01*
X15964Y11169D01*
X15612Y11279D01*
X15258Y11381D01*
X14902Y11476D01*
X14544Y11563D01*
X14183Y11643D01*
X13822Y11714D01*
X13458Y11778D01*
X13094Y11834D01*
X12728Y11881D01*
X12361Y11921D01*
X11994Y11953D01*
X11626Y11977D01*
X11258Y11993D01*
X10889Y12001D01*
X10520D01*
X10152Y11993D01*
X9783Y11977D01*
X9415Y11953D01*
X9048Y11921D01*
X8681Y11881D01*
X8315Y11833D01*
X7951Y11778D01*
X7588Y11714D01*
X7226Y11643D01*
X6866Y11563D01*
X6507Y11476D01*
X6151Y11381D01*
X5797Y11279D01*
X5445Y11169D01*
X5095Y11051D01*
X4749Y10925D01*
X4405Y10792D01*
X4064Y10652D01*
X3726Y10504D01*
X3391Y10350D01*
X3060Y10187D01*
X2732Y10018D01*
X2408Y9842D01*
X2088Y9658D01*
X1772Y9468D01*
X1461Y9271D01*
X1153Y9067D01*
X850Y8857D01*
X552Y8640D01*
X259Y8417D01*
X-30Y8187D01*
X-313Y7952D01*
X-592Y7710D01*
X-865Y7462D01*
X-1133Y7208D01*
X-1395Y6949D01*
X-1651Y6683D01*
X-1777Y6549D01*
X-1777Y6549D01*
X-9719Y10252D01*
X-9585Y10432D01*
X-9311Y10786D01*
X-9031Y11135D01*
X-8744Y11479D01*
X-8452Y11817D01*
X-8153Y12151D01*
X-7849Y12480D01*
X-7539Y12803D01*
X-7224Y13120D01*
X-6903Y13432D01*
X-6576Y13738D01*
X-6244Y14039D01*
X-5908Y14334D01*
X-5565Y14622D01*
X-5218Y14905D01*
X-4866Y15181D01*
X-4509Y15452D01*
X-4148Y15716D01*
X-3782Y15973D01*
X-3411Y16224D01*
X-3036Y16469D01*
X-2657Y16707D01*
X-2273Y16938D01*
X-1886Y17162D01*
X-1495Y17380D01*
X-1100Y17591D01*
X-701Y17795D01*
X-299Y17991D01*
X106Y18181D01*
X515Y18363D01*
X927Y18539D01*
X1342Y18707D01*
X1760Y18868D01*
X2180Y19021D01*
X2603Y19167D01*
X3029Y19305D01*
X3457Y19436D01*
X3887Y19560D01*
X4320Y19676D01*
X4754Y19784D01*
X5190Y19885D01*
X5628Y19978D01*
X6068Y20063D01*
X6509Y20140D01*
X6951Y20210D01*
X7394Y20272D01*
X7839Y20326D01*
X8284Y20373D01*
X8730Y20411D01*
X9176Y20442D01*
X9623Y20465D01*
X10071Y20480D01*
X10518Y20487D01*
X10966Y20487D01*
X11414Y20478D01*
X11861Y20462D01*
X12308Y20437D01*
X12754Y20405D01*
X13200Y20366D01*
X13645Y20318D01*
X14090Y20262D01*
X14533Y20199D01*
X14975Y20128D01*
X15416Y20049D01*
X15855Y19963D01*
X16292Y19868D01*
X16728Y19766D01*
X17162Y19657D01*
X17594Y19539D01*
X18024Y19415D01*
X18452Y19283D01*
X18877Y19143D01*
X19300Y18995D01*
X19720Y18841D01*
X20137Y18679D01*
X20552Y18510D01*
X20963Y18333D01*
X21371Y18149D01*
X21776Y17959D01*
X22178Y17761D01*
X22576Y17556D01*
X22970Y17344D01*
X23361Y17125D01*
X23747Y16899D01*
X24130Y16667D01*
X24509Y16428D01*
X24883Y16183D01*
X25253Y15930D01*
X25618Y15672D01*
X25979Y15407D01*
X26335Y15135D01*
X26686Y14858D01*
X27032Y14574D01*
X27374Y14285D01*
X27710Y13989D01*
X28041Y13687D01*
X28366Y13380D01*
X28686Y13067D01*
X29001Y12749D01*
X29310Y12425D01*
X29613Y12095D01*
X29911Y11761D01*
X30202Y11421D01*
X30487Y11076D01*
X30627Y10901D01*
X30627Y10901D01*
X30627Y10901D01*
X30627Y10901D01*
X23368Y7516D01*
X23237Y7647D01*
X22971Y7905D01*
X22699Y8158D01*
X22423Y8405D01*
X22141Y8646D01*
X21854Y8881D01*
X21563Y9110D01*
X21267Y9332D01*
X20966Y9549D01*
X20661Y9760D01*
X20351Y9964D01*
X20038Y10161D01*
X19720Y10352D01*
X19398Y10536D01*
X19073Y10714D01*
X18744Y10885D01*
X18411Y11049D01*
X18075Y11205D01*
X17736Y11355D01*
X17394Y11498D01*
X17049Y11634D01*
X16702Y11762D01*
X16351Y11883D01*
X15998Y11997D01*
X15643Y12104D01*
X15286Y12203D01*
X14927Y12294D01*
X14566Y12378D01*
X14203Y12455D01*
X13839Y12524D01*
X13474Y12585D01*
X13107Y12639D01*
X12739Y12686D01*
X12370Y12724D01*
X12001Y12755D01*
X11631Y12778D01*
X11261Y12793D01*
X10890Y12801D01*
X10519D01*
X10149Y12793D01*
X9778Y12778D01*
X9408Y12755D01*
X9039Y12724D01*
X8670Y12686D01*
X8303Y12639D01*
X7936Y12585D01*
X7570Y12524D01*
X7206Y12455D01*
X6843Y12378D01*
X6482Y12294D01*
X6123Y12203D01*
X5766Y12104D01*
X5411Y11997D01*
X5058Y11883D01*
X4708Y11762D01*
X4360Y11634D01*
X4015Y11498D01*
X3673Y11355D01*
X3334Y11205D01*
X2998Y11049D01*
X2666Y10885D01*
X2337Y10714D01*
X2011Y10536D01*
X1689Y10352D01*
X1372Y10161D01*
X1058Y9963D01*
X749Y9760D01*
X443Y9549D01*
X143Y9332D01*
X-154Y9110D01*
X-445Y8880D01*
X-732Y8646D01*
X-1013Y8405D01*
X-1290Y8158D01*
X-1561Y7905D01*
X-1827Y7647D01*
X-1958Y7516D01*
X-1958Y7516D01*
X-8471Y10553D01*
X-8337Y10719D01*
X-8063Y11045D01*
X-7783Y11366D01*
X-7498Y11683D01*
X-7207Y11994D01*
X-6911Y12301D01*
X-6610Y12602D01*
X-6303Y12898D01*
X-5992Y13189D01*
X-5676Y13474D01*
X-5354Y13754D01*
X-5028Y14028D01*
X-4697Y14297D01*
X-4362Y14560D01*
X-4022Y14817D01*
X-3678Y15068D01*
X-3330Y15313D01*
X-2977Y15552D01*
X-2620Y15785D01*
X-2259Y16012D01*
X-1895Y16232D01*
X-1526Y16447D01*
X-1154Y16654D01*
X-779Y16856D01*
X-400Y17051D01*
X-18Y17239D01*
X368Y17421D01*
X756Y17596D01*
X1148Y17764D01*
X1542Y17925D01*
X1939Y18080D01*
X2339Y18228D01*
X2741Y18369D01*
X3145Y18503D01*
X3552Y18630D01*
X3961Y18749D01*
X4372Y18862D01*
X4784Y18968D01*
X5199Y19067D01*
X5615Y19158D01*
X6033Y19242D01*
X6452Y19319D01*
X6872Y19389D01*
X7294Y19451D01*
X7716Y19507D01*
X8140Y19554D01*
X8564Y19595D01*
X8989Y19628D01*
X9414Y19654D01*
X9840Y19673D01*
X10266Y19684D01*
X10692Y19688D01*
X10905Y19686D01*
X10905Y19686D01*
X10905Y18862D01*
X10942Y18852D01*
X11014Y18826D01*
X11084Y18792D01*
X11150Y18753D01*
X11212Y18707D01*
X11269Y18655D01*
X11321Y18598D01*
X11368Y18537D01*
X11408Y18471D01*
X11441Y18402D01*
X11468Y18329D01*
X11488Y18255D01*
X11501Y18179D01*
X11506Y18102D01*
X11503Y18025D01*
X11494Y17948D01*
X11477Y17873D01*
X11452Y17800D01*
X11421Y17729D01*
X11384Y17662D01*
X11340Y17599D01*
X11290Y17540D01*
X11234Y17486D01*
X11174Y17438D01*
X11110Y17396D01*
X11041Y17360D01*
X10970Y17331D01*
X10896Y17309D01*
X10820Y17294D01*
X10744Y17287D01*
X10666Y17287D01*
X10590Y17294D01*
X10514Y17309D01*
X10440Y17331D01*
X10369Y17360D01*
X10300Y17396D01*
X10236Y17438D01*
X10175Y17486D01*
X10120Y17540D01*
X10070Y17598D01*
X10026Y17662D01*
X9988Y17729D01*
X9957Y17799D01*
X9933Y17873D01*
X9916Y17948D01*
X9906Y18024D01*
X9904Y18101D01*
X9909Y18178D01*
X9922Y18254D01*
X9941Y18329D01*
X9968Y18401D01*
X10002Y18471D01*
X10042Y18536D01*
X10088Y18598D01*
X10140Y18655D01*
X10197Y18707D01*
X10259Y18753D01*
X10325Y18792D01*
X10395Y18826D01*
X10467Y18852D01*
X10505Y18862D01*
X10505Y18862D01*
X10505Y19286D01*
X10287Y19284D01*
X9852Y19272D01*
X9417Y19253D01*
X8983Y19226D01*
X8549Y19191D01*
X8116Y19149D01*
X7684Y19099D01*
X7253Y19041D01*
X6823Y18975D01*
X6394Y18902D01*
X5966Y18821D01*
X5540Y18732D01*
X5116Y18636D01*
X4693Y18532D01*
X4273Y18420D01*
X3854Y18301D01*
X3438Y18175D01*
X3024Y18041D01*
X2612Y17900D01*
X2203Y17751D01*
X1797Y17595D01*
X1394Y17432D01*
X993Y17262D01*
X596Y17084D01*
X202Y16900D01*
X-189Y16708D01*
X-576Y16510D01*
X-960Y16304D01*
X-1339Y16092D01*
X-1715Y15873D01*
X-2087Y15647D01*
X-2455Y15415D01*
X-2819Y15176D01*
X-3178Y14930D01*
X-3533Y14678D01*
X-3883Y14420D01*
X-4229Y14156D01*
X-4570Y13885D01*
X-4906Y13609D01*
X-5237Y13326D01*
X-5562Y13038D01*
X-5883Y12743D01*
X-6198Y12444D01*
X-6508Y12138D01*
X-6812Y11827D01*
X-7111Y11511D01*
X-7404Y11189D01*
X-7691Y10862D01*
X-7833Y10697D01*
X-2043Y7997D01*
X-1910Y8127D01*
X-1639Y8382D01*
X-1364Y8630D01*
X-1083Y8874D01*
X-797Y9111D01*
X-507Y9343D01*
X-211Y9569D01*
X88Y9789D01*
X392Y10002D01*
X701Y10210D01*
X1013Y10410D01*
X1330Y10605D01*
X1651Y10793D01*
X1975Y10974D01*
X2303Y11149D01*
X2634Y11317D01*
X2969Y11479D01*
X3307Y11633D01*
X3648Y11780D01*
X3992Y11921D01*
X4339Y12054D01*
X4688Y12181D01*
X5040Y12300D01*
X5395Y12412D01*
X5751Y12516D01*
X6110Y12614D01*
X6470Y12704D01*
X6833Y12787D01*
X7197Y12862D01*
X7562Y12930D01*
X7929Y12990D01*
X8296Y13043D01*
X8665Y13088D01*
X9035Y13126D01*
X9405Y13157D01*
X9776Y13179D01*
X10147Y13194D01*
X10519Y13202D01*
X10890Y13202D01*
X11262Y13194D01*
X11633Y13179D01*
X12004Y13157D01*
X12375Y13126D01*
X12744Y13088D01*
X13113Y13043D01*
X13481Y12990D01*
X13847Y12930D01*
X14213Y12862D01*
X14577Y12787D01*
X14939Y12704D01*
X15299Y12614D01*
X15658Y12516D01*
X16015Y12412D01*
X16369Y12300D01*
X16721Y12180D01*
X17070Y12054D01*
X17417Y11921D01*
X17761Y11780D01*
X18102Y11633D01*
X18440Y11478D01*
X18775Y11317D01*
X19106Y11149D01*
X19434Y10974D01*
X19759Y10793D01*
X20079Y10605D01*
X20396Y10410D01*
X20708Y10209D01*
X21017Y10002D01*
X21321Y9789D01*
X21621Y9569D01*
X21916Y9343D01*
X22206Y9111D01*
X22492Y8874D01*
X22773Y8630D01*
X23049Y8381D01*
X23319Y8127D01*
X23452Y7997D01*
X23452Y7997D01*
X29993Y11047D01*
X29854Y11212D01*
X29573Y11538D01*
X29286Y11860D01*
X28993Y12176D01*
X28695Y12488D01*
X28392Y12794D01*
X28084Y13095D01*
X27771Y13391D01*
X27452Y13681D01*
X27129Y13966D01*
X26800Y14246D01*
X26467Y14519D01*
X26130Y14787D01*
X25787Y15049D01*
X25441Y15305D01*
X25090Y15555D01*
X24735Y15799D01*
X24375Y16037D01*
X24012Y16269D01*
X23644Y16494D01*
X23273Y16713D01*
X22898Y16926D01*
X22520Y17132D01*
X22138Y17331D01*
X21753Y17525D01*
X21364Y17711D01*
X20972Y17891D01*
X20577Y18064D01*
X20180Y18230D01*
X19779Y18389D01*
X19376Y18541D01*
X18970Y18687D01*
X18562Y18825D01*
X18152Y18957D01*
X17739Y19081D01*
X17325Y19198D01*
X16908Y19308D01*
X16489Y19411D01*
X16069Y19507D01*
X15647Y19595D01*
X15224Y19677D01*
X14800Y19751D01*
X14374Y19817D01*
X13947Y19877D01*
X13519Y19929D01*
X13090Y19973D01*
X12661Y20011D01*
X12231Y20041D01*
X11801Y20063D01*
X11370Y20078D01*
X10939Y20086D01*
X10508Y20086D01*
X10077Y20079D01*
X9646Y20065D01*
X9216Y20043D01*
X8786Y20014D01*
X8357Y19977D01*
X7928Y19933D01*
X7500Y19882D01*
X7073Y19823D01*
X6647Y19757D01*
X6222Y19684D01*
X5799Y19603D01*
X5377Y19515D01*
X4957Y19420D01*
X4538Y19318D01*
X4121Y19208D01*
X3706Y19092D01*
X3294Y18968D01*
X2883Y18837D01*
X2475Y18699D01*
X2069Y18554D01*
X1665Y18403D01*
X1265Y18244D01*
X867Y18078D01*
X472Y17906D01*
X80Y17727D01*
X-309Y17541D01*
X-695Y17349D01*
X-1077Y17150D01*
X-1456Y16944D01*
X-1831Y16732D01*
X-2203Y16513D01*
X-2570Y16289D01*
X-2934Y16058D01*
X-3294Y15820D01*
X-3649Y15577D01*
X-4001Y15327D01*
X-4348Y15072D01*
X-4690Y14810D01*
X-5029Y14543D01*
X-5362Y14270D01*
X-5691Y13991D01*
X-6015Y13707D01*
X-6333Y13417D01*
X-6647Y13122D01*
X-6956Y12821D01*
X-7260Y12515D01*
X-7558Y12204D01*
X-7851Y11888D01*
X-8138Y11567D01*
X-8420Y11241D01*
X-8696Y10910D01*
X-8967Y10574D01*
X-9100Y10405D01*
X-9100Y10405D01*
Y10405D01*
X-9100Y10405D01*
X-1870Y7034D01*
X-1742Y7167D01*
X-1481Y7429D01*
X-1214Y7685D01*
X-942Y7935D01*
X-664Y8179D01*
X-381Y8418D01*
X-94Y8650D01*
X199Y8876D01*
X496Y9096D01*
X798Y9310D01*
X1104Y9517D01*
X1415Y9718D01*
X1729Y9912D01*
X2048Y10099D01*
X2371Y10279D01*
X2698Y10453D01*
X3028Y10619D01*
X3361Y10779D01*
X3698Y10931D01*
X4038Y11076D01*
X4381Y11214D01*
X4727Y11345D01*
X5076Y11468D01*
X5427Y11584D01*
X5781Y11692D01*
X6137Y11793D01*
X6494Y11886D01*
X6854Y11972D01*
X7215Y12050D01*
X7579Y12120D01*
X7943Y12183D01*
X8309Y12237D01*
X8676Y12284D01*
X9043Y12324D01*
X9412Y12355D01*
X9781Y12378D01*
X10150Y12394D01*
X10520Y12402D01*
X10889Y12402D01*
X11259Y12394D01*
X11629Y12378D01*
X11998Y12355D01*
X12366Y12324D01*
X12734Y12284D01*
X13101Y12237D01*
X13466Y12183D01*
X13831Y12120D01*
X14194Y12050D01*
X14555Y11972D01*
X14915Y11886D01*
X15273Y11793D01*
X15629Y11692D01*
X15982Y11584D01*
X16333Y11468D01*
X16682Y11345D01*
X17028Y11214D01*
X17371Y11076D01*
X17711Y10931D01*
X18048Y10779D01*
X18382Y10619D01*
X18712Y10453D01*
X19038Y10279D01*
X19361Y10099D01*
X19680Y9911D01*
X19995Y9718D01*
X20305Y9517D01*
X20612Y9310D01*
X20913Y9096D01*
X21211Y8876D01*
X21503Y8650D01*
X21791Y8418D01*
X22073Y8179D01*
X22351Y7935D01*
X22623Y7685D01*
X22890Y7429D01*
X23151Y7167D01*
X23279Y7034D01*
X23279Y7034D01*
X31252Y10751D01*
X31116Y10928D01*
X30838Y11278D01*
X30553Y11623D01*
X30263Y11964D01*
X29967Y12299D01*
X29666Y12629D01*
X29358Y12953D01*
X29045Y13273D01*
X28727Y13587D01*
X28403Y13895D01*
X28074Y14198D01*
X27740Y14495D01*
X27401Y14786D01*
X27057Y15071D01*
X26708Y15350D01*
X26354Y15624D01*
X25995Y15891D01*
X25632Y16152D01*
X25265Y16406D01*
X24893Y16654D01*
X24517Y16896D01*
X24137Y17131D01*
X23752Y17360D01*
X23364Y17582D01*
X22972Y17797D01*
X22577Y18005D01*
X22178Y18207D01*
X21775Y18401D01*
X21370Y18589D01*
X20961Y18770D01*
X20549Y18943D01*
X20134Y19109D01*
X19716Y19269D01*
X19295Y19421D01*
X18872Y19565D01*
X18447Y19703D01*
X18019Y19833D01*
X17589Y19955D01*
X17157Y20070D01*
X16723Y20178D01*
X16288Y20278D01*
X15850Y20371D01*
X15411Y20456D01*
X14971Y20533D01*
X14529Y20603D01*
X14087Y20665D01*
X13643Y20720D01*
X13198Y20767D01*
X12753Y20806D01*
X12307Y20838D01*
X11861Y20861D01*
X11414Y20877D01*
X10967Y20886D01*
X10520Y20886D01*
X10073Y20879D01*
X9626Y20865D01*
X9179Y20842D01*
X8733Y20812D01*
X8288Y20774D01*
X7843Y20729D01*
X7399Y20675D01*
X6956Y20614D01*
X6515Y20546D01*
X6074Y20470D01*
X5635Y20386D01*
X5197Y20295D01*
X4761Y20196D01*
X4327Y20089D01*
X3895Y19976D01*
X3464Y19854D01*
X3036Y19726D01*
X2610Y19590D01*
X2187Y19446D01*
X1766Y19296D01*
X1348Y19138D01*
X932Y18972D01*
X520Y18800D01*
X110Y18621D01*
X-296Y18434D01*
X-699Y18241D01*
X-1099Y18041D01*
X-1495Y17833D01*
X-1887Y17619D01*
X-2276Y17399D01*
X-2661Y17171D01*
X-3042Y16937D01*
X-3419Y16697D01*
X-3791Y16450D01*
X-4160Y16196D01*
X-4524Y15936D01*
X-4883Y15670D01*
X-5237Y15398D01*
X-5587Y15120D01*
X-5932Y14836D01*
X-6273Y14546D01*
X-6608Y14250D01*
X-6938Y13948D01*
X-7262Y13640D01*
X-7581Y13328D01*
X-7895Y13009D01*
X-8203Y12685D01*
X-8506Y12356D01*
X-8803Y12022D01*
X-9094Y11683D01*
X-9379Y11338D01*
X-9659Y10989D01*
X-9932Y10635D01*
X-10199Y10277D01*
X-10330Y10096D01*
X-1679Y6062D01*
X-1563Y6192D01*
X-1324Y6448D01*
X-1081Y6698D01*
X-832Y6943D01*
X-578Y7183D01*
X-319Y7418D01*
X-55Y7647D01*
X213Y7871D01*
X486Y8088D01*
X764Y8300D01*
X1046Y8506D01*
X1333Y8707D01*
X1623Y8901D01*
X1918Y9089D01*
X2216Y9270D01*
X2518Y9446D01*
X2824Y9615D01*
X3133Y9777D01*
X3446Y9933D01*
X3762Y10082D01*
X4081Y10225D01*
X4403Y10361D01*
X4727Y10490D01*
X5055Y10613D01*
X5384Y10728D01*
X5717Y10836D01*
X6051Y10938D01*
X6387Y11032D01*
X6726Y11119D01*
X7066Y11199D01*
X7407Y11272D01*
X7750Y11338D01*
X8095Y11397D01*
X8441Y11448D01*
X8787Y11492D01*
X9135Y11529D01*
X9483Y11558D01*
X9832Y11580D01*
X10181Y11595D01*
X10530Y11602D01*
X10879Y11602D01*
X11229Y11595D01*
X11578Y11580D01*
X11926Y11558D01*
X12275Y11529D01*
X12622Y11492D01*
X12969Y11448D01*
X13314Y11397D01*
X13659Y11338D01*
X14002Y11272D01*
X14344Y11199D01*
X14684Y11119D01*
X15022Y11032D01*
X15358Y10938D01*
X15693Y10836D01*
X16025Y10728D01*
X16355Y10612D01*
X16682Y10490D01*
X17007Y10361D01*
X17328Y10225D01*
X17647Y10082D01*
X17963Y9933D01*
X18276Y9777D01*
X18585Y9615D01*
X18891Y9446D01*
X19193Y9270D01*
X19492Y9089D01*
X19786Y8901D01*
X20077Y8707D01*
X20363Y8506D01*
X20645Y8300D01*
X20923Y8088D01*
X21196Y7871D01*
X21465Y7647D01*
X21729Y7418D01*
X21987Y7183D01*
X22241Y6943D01*
X22490Y6698D01*
X22734Y6448D01*
X22972Y6192D01*
X23088Y6062D01*
X23088Y6062D01*
X32477Y10440D01*
X32342Y10627D01*
X32068Y10999D01*
X31788Y11367D01*
X31502Y11729D01*
X31209Y12086D01*
X30910Y12438D01*
X30605Y12785D01*
X30295Y13127D01*
X29978Y13463D01*
X29655Y13794D01*
X29327Y14119D01*
X28994Y14438D01*
X28654Y14752D01*
X28310Y15059D01*
X27960Y15361D01*
X27605Y15656D01*
X27245Y15946D01*
X26880Y16229D01*
X26510Y16505D01*
X26136Y16776D01*
X25756Y17039D01*
X25373Y17296D01*
X24985Y17547D01*
X24592Y17790D01*
X24196Y18027D01*
X23795Y18257D01*
X23391Y18480D01*
X22982Y18696D01*
X22570Y18905D01*
X22155Y19107D01*
X21736Y19301D01*
X21314Y19489D01*
X20888Y19668D01*
X20460Y19841D01*
X20029Y20006D01*
X19594Y20164D01*
X19158Y20313D01*
X18718Y20456D01*
X18277Y20591D01*
X17832Y20718D01*
X17386Y20837D01*
X16938Y20949D01*
X16488Y21053D01*
X16036Y21149D01*
X15583Y21238D01*
X15128Y21318D01*
X14672Y21391D01*
X14215Y21455D01*
X13757Y21512D01*
X13297Y21561D01*
X12837Y21602D01*
X12376Y21635D01*
X11915Y21660D01*
X11454Y21677D01*
X10992Y21686D01*
X10530Y21687D01*
X10068Y21679D01*
X9607Y21665D01*
X9145Y21642D01*
X8684Y21610D01*
X8224Y21572D01*
X7765Y21525D01*
X7306Y21470D01*
X6848Y21407D01*
X6392Y21336D01*
X5937Y21258D01*
X5483Y21171D01*
X5031Y21077D01*
X4581Y20975D01*
X4132Y20865D01*
X3685Y20748D01*
X3241Y20622D01*
X2798Y20490D01*
X2359Y20349D01*
X1921Y20201D01*
X1486Y20045D01*
X1054Y19882D01*
X625Y19711D01*
X199Y19533D01*
X-224Y19348D01*
X-644Y19155D01*
X-1060Y18955D01*
X-1473Y18748D01*
X-1882Y18533D01*
X-2288Y18312D01*
X-2689Y18084D01*
X-3087Y17849D01*
X-3480Y17607D01*
X-3869Y17358D01*
X-4254Y17102D01*
X-4634Y16840D01*
X-5010Y16572D01*
X-5381Y16297D01*
X-5747Y16015D01*
X-6108Y15727D01*
X-6465Y15433D01*
X-6816Y15133D01*
X-7162Y14827D01*
X-7502Y14515D01*
X-7837Y14197D01*
X-8167Y13874D01*
X-8490Y13544D01*
X-8809Y13209D01*
X-9121Y12869D01*
X-9427Y12523D01*
X-9727Y12173D01*
X-10022Y11817D01*
X-10310Y11455D01*
X-10591Y11089D01*
X-10867Y10718D01*
X-11136Y10343D01*
X-11398Y9963D01*
X-11527Y9771D01*
X-1468Y5081D01*
X-1358Y5215D01*
X-1130Y5477D01*
X-897Y5734D01*
X-658Y5987D01*
X-414Y6234D01*
X-164Y6475D01*
X91Y6711D01*
X351Y6942D01*
X616Y7166D01*
X886Y7385D01*
X1160Y7597D01*
X1439Y7804D01*
X1723Y8004D01*
X2011Y8199D01*
X2303Y8386D01*
X2599Y8568D01*
X2900Y8742D01*
X3204Y8911D01*
X3511Y9072D01*
X3822Y9227D01*
X4137Y9374D01*
X4454Y9515D01*
X4775Y9649D01*
X5098Y9776D01*
X5424Y9895D01*
X5753Y10008D01*
X6084Y10113D01*
X6417Y10211D01*
X6752Y10301D01*
X7090Y10384D01*
X7429Y10460D01*
X7769Y10528D01*
X8111Y10589D01*
X8455Y10642D01*
X8799Y10688D01*
X9144Y10726D01*
X9490Y10756D01*
X9837Y10779D01*
X10184Y10794D01*
X10531Y10802D01*
X10878Y10802D01*
X11225Y10794D01*
X11573Y10779D01*
X11919Y10756D01*
X12265Y10726D01*
X12610Y10688D01*
X12955Y10642D01*
X13298Y10589D01*
X13640Y10528D01*
X13981Y10460D01*
X14320Y10384D01*
X14657Y10301D01*
X14992Y10211D01*
X15325Y10113D01*
X15656Y10008D01*
X15985Y9895D01*
X16311Y9776D01*
X16635Y9649D01*
X16955Y9515D01*
X17273Y9374D01*
X17587Y9227D01*
X17898Y9072D01*
X18206Y8911D01*
X18509Y8742D01*
X18810Y8568D01*
X19106Y8386D01*
X19398Y8199D01*
X19686Y8004D01*
X19970Y7804D01*
X20249Y7597D01*
X20524Y7385D01*
X20794Y7166D01*
X21058Y6942D01*
X21318Y6711D01*
X21573Y6475D01*
X21823Y6234D01*
X22067Y5987D01*
X22306Y5734D01*
X22539Y5477D01*
X22767Y5215D01*
X22878Y5081D01*
X22878Y5081D01*
X33669Y10113D01*
X33542Y10304D01*
X33283Y10684D01*
X33017Y11059D01*
X32745Y11430D01*
X32467Y11796D01*
X32183Y12158D01*
X31893Y12515D01*
X31597Y12866D01*
X31296Y13213D01*
X30988Y13555D01*
X30675Y13891D01*
X30356Y14222D01*
X30032Y14548D01*
X29702Y14869D01*
X29367Y15184D01*
X29027Y15493D01*
X28682Y15796D01*
X28331Y16094D01*
X27976Y16386D01*
X27616Y16671D01*
X27251Y16951D01*
X26882Y17225D01*
X26508Y17492D01*
X26129Y17753D01*
X25747Y18008D01*
X25360Y18256D01*
X24969Y18498D01*
X24574Y18733D01*
X24175Y18961D01*
X23772Y19183D01*
X23366Y19398D01*
X22956Y19607D01*
X22543Y19808D01*
X22127Y20003D01*
X21707Y20190D01*
X21284Y20370D01*
X20858Y20544D01*
X20429Y20710D01*
X19998Y20869D01*
X19564Y21021D01*
X19128Y21165D01*
X18689Y21302D01*
X18248Y21432D01*
X17805Y21554D01*
X17360Y21669D01*
X16913Y21777D01*
X16464Y21877D01*
X16014Y21970D01*
X15562Y22055D01*
X15109Y22132D01*
X14655Y22202D01*
X14199Y22264D01*
X13743Y22319D01*
X13285Y22366D01*
X12827Y22405D01*
X12369Y22437D01*
X11910Y22461D01*
X11450Y22477D01*
X10991Y22486D01*
X10531Y22487D01*
X10071Y22480D01*
X9612Y22465D01*
X9153Y22443D01*
X8694Y22413D01*
X8236Y22376D01*
X7778Y22331D01*
X7322Y22278D01*
X6866Y22218D01*
X6411Y22150D01*
X5958Y22074D01*
X5506Y21991D01*
X5055Y21900D01*
X4606Y21802D01*
X4158Y21697D01*
X3713Y21583D01*
X3269Y21463D01*
X2828Y21335D01*
X2389Y21199D01*
X1952Y21057D01*
X1517Y20907D01*
X1085Y20749D01*
X656Y20585D01*
X229Y20413D01*
X-194Y20235D01*
X-615Y20049D01*
X-1032Y19856D01*
X-1446Y19657D01*
X-1857Y19450D01*
X-2264Y19237D01*
X-2668Y19016D01*
X-3067Y18789D01*
X-3463Y18556D01*
X-3855Y18316D01*
X-4243Y18069D01*
X-4627Y17816D01*
X-5006Y17556D01*
X-5381Y17291D01*
X-5752Y17018D01*
X-6118Y16740D01*
X-6479Y16456D01*
X-6836Y16166D01*
X-7187Y15869D01*
X-7534Y15567D01*
X-7875Y15260D01*
X-8212Y14946D01*
X-8542Y14627D01*
X-8868Y14303D01*
X-9188Y13973D01*
X-9503Y13637D01*
X-9812Y13297D01*
X-10115Y12952D01*
X-10412Y12601D01*
X-10704Y12245D01*
X-10989Y11885D01*
X-11269Y11520D01*
X-11542Y11150D01*
X-11809Y10776D01*
X-12070Y10398D01*
X-12324Y10015D01*
X-12572Y9628D01*
X-12694Y9433D01*
X-12694Y9433D01*
Y9432D01*
X-12694Y9433D01*
X-1235Y4089D01*
X-1130Y4227D01*
X-915Y4496D01*
X-693Y4761D01*
X-466Y5020D01*
X-232Y5274D01*
X7Y5523D01*
X252Y5766D01*
X503Y6004D01*
X758Y6235D01*
X1020Y6461D01*
X1286Y6681D01*
X1557Y6894D01*
X1833Y7101D01*
X2114Y7302D01*
X2399Y7496D01*
X2689Y7684D01*
X2983Y7865D01*
X3281Y8039D01*
X3583Y8206D01*
X3888Y8366D01*
X4198Y8519D01*
X4510Y8665D01*
X4826Y8804D01*
X5145Y8936D01*
X5468Y9060D01*
X5792Y9177D01*
X6120Y9286D01*
X6449Y9387D01*
X6782Y9481D01*
X7116Y9568D01*
X7452Y9646D01*
X7790Y9717D01*
X8129Y9780D01*
X8469Y9836D01*
X8811Y9883D01*
X9154Y9923D01*
X9498Y9954D01*
X9842Y9978D01*
X10187Y9994D01*
X10532Y10002D01*
X10877Y10002D01*
X11222Y9994D01*
X11567Y9978D01*
X11911Y9954D01*
X12255Y9923D01*
X12598Y9883D01*
X12940Y9836D01*
X13280Y9780D01*
X13620Y9717D01*
X13957Y9646D01*
X14293Y9568D01*
X14628Y9481D01*
X14960Y9387D01*
X15290Y9286D01*
X15617Y9177D01*
X15942Y9060D01*
X16264Y8936D01*
X16583Y8804D01*
X16899Y8665D01*
X17212Y8519D01*
X17521Y8366D01*
X17827Y8206D01*
X18128Y8039D01*
X18427Y7865D01*
X18720Y7684D01*
X19010Y7496D01*
X19295Y7302D01*
X19576Y7101D01*
X19852Y6894D01*
X20123Y6680D01*
X20390Y6461D01*
X20651Y6235D01*
X20907Y6004D01*
X21157Y5766D01*
X21402Y5523D01*
X21641Y5274D01*
X21875Y5020D01*
X22102Y4761D01*
X22324Y4496D01*
X22539Y4227D01*
X22644Y4089D01*
X22644Y4089D01*
X34833Y9773D01*
X34708Y9974D01*
X34455Y10373D01*
X34195Y10767D01*
X33928Y11157D01*
X33655Y11543D01*
X33375Y11924D01*
X33089Y12300D01*
X32797Y12671D01*
X32499Y13037D01*
X32195Y13399D01*
X31884Y13755D01*
X31568Y14106D01*
X31246Y14452D01*
X30918Y14792D01*
X30584Y15127D01*
X30246Y15456D01*
X29901Y15780D01*
X29551Y16097D01*
X29196Y16409D01*
X28836Y16715D01*
X28471Y17015D01*
X28100Y17308D01*
X27725Y17595D01*
X27345Y17877D01*
X26961Y18151D01*
X26572Y18419D01*
X26179Y18681D01*
X25781Y18936D01*
X25379Y19185D01*
X24973Y19426D01*
X24563Y19661D01*
X24149Y19889D01*
X23731Y20110D01*
X23310Y20324D01*
X22885Y20531D01*
X22457Y20731D01*
X22026Y20924D01*
X21591Y21109D01*
X21153Y21287D01*
X20713Y21458D01*
X20269Y21621D01*
X19824Y21778D01*
X19375Y21926D01*
X18924Y22067D01*
X18471Y22200D01*
X18015Y22326D01*
X17558Y22445D01*
X17098Y22555D01*
X16637Y22658D01*
X16174Y22753D01*
X15710Y22841D01*
X15244Y22921D01*
X14777Y22993D01*
X14309Y23057D01*
X13840Y23113D01*
X13370Y23161D01*
X12899Y23202D01*
X12428Y23235D01*
X11956Y23259D01*
X11484Y23276D01*
X11011Y23285D01*
X10539Y23287D01*
X10066Y23280D01*
X9594Y23265D01*
X9122Y23243D01*
X8651Y23212D01*
X8180Y23174D01*
X7709Y23128D01*
X7240Y23074D01*
X6772Y23012D01*
X6304Y22943D01*
X5838Y22865D01*
X5373Y22780D01*
X4910Y22687D01*
X4448Y22587D01*
X3988Y22479D01*
X3530Y22363D01*
X3074Y22239D01*
X2620Y22108D01*
X2169Y21969D01*
X1719Y21823D01*
X1273Y21669D01*
X828Y21508D01*
X387Y21339D01*
X-52Y21163D01*
X-487Y20980D01*
X-919Y20789D01*
X-1349Y20592D01*
X-1774Y20387D01*
X-2197Y20175D01*
X-2615Y19956D01*
X-3030Y19730D01*
X-3442Y19497D01*
X-3849Y19257D01*
X-4252Y19011D01*
X-4651Y18758D01*
X-5046Y18498D01*
X-5436Y18232D01*
X-5822Y17959D01*
X-6203Y17680D01*
X-6580Y17395D01*
X-6951Y17103D01*
X-7318Y16805D01*
X-7680Y16501D01*
X-8037Y16191D01*
X-8388Y15875D01*
X-8734Y15553D01*
X-9075Y15226D01*
X-9410Y14893D01*
X-9739Y14554D01*
X-10063Y14210D01*
X-10381Y13860D01*
X-10693Y13506D01*
X-10999Y13146D01*
X-11299Y12781D01*
X-11593Y12411D01*
X-11881Y12036D01*
X-12163Y11657D01*
X-12438Y11273D01*
X-12707Y10884D01*
X-12969Y10491D01*
X-13224Y10093D01*
X-13473Y9692D01*
X-13715Y9286D01*
X-13834Y9082D01*
X-13834Y9082D01*
X-13834Y9081D01*
X-13834Y9082D01*
X-976Y3086D01*
X-883Y3220D01*
X-691Y3484D01*
X-493Y3743D01*
X-289Y3998D01*
X-79Y4248D01*
X137Y4494D01*
X358Y4734D01*
X584Y4969D01*
X816Y5199D01*
X1053Y5423D01*
X1295Y5642D01*
X1543Y5855D01*
X1794Y6063D01*
X2051Y6265D01*
X2312Y6460D01*
X2578Y6650D01*
X2848Y6834D01*
X3122Y7011D01*
X3400Y7182D01*
X3682Y7347D01*
X3968Y7505D01*
X4257Y7656D01*
X4549Y7801D01*
X4845Y7939D01*
X5144Y8070D01*
X5446Y8194D01*
X5751Y8312D01*
X6058Y8422D01*
X6368Y8525D01*
X6680Y8621D01*
X6994Y8710D01*
X7310Y8792D01*
X7628Y8866D01*
X7947Y8933D01*
X8268Y8992D01*
X8591Y9045D01*
X8914Y9090D01*
X9238Y9127D01*
X9563Y9157D01*
X9889Y9179D01*
X10215Y9194D01*
X10541Y9202D01*
X10868Y9202D01*
X11194Y9194D01*
X11520Y9179D01*
X11846Y9157D01*
X12171Y9127D01*
X12495Y9090D01*
X12819Y9045D01*
X13141Y8992D01*
X13462Y8933D01*
X13781Y8866D01*
X14099Y8792D01*
X14415Y8710D01*
X14729Y8621D01*
X15042Y8525D01*
X15351Y8422D01*
X15658Y8312D01*
X15963Y8194D01*
X16265Y8070D01*
X16564Y7939D01*
X16860Y7801D01*
X17152Y7656D01*
X17442Y7505D01*
X17727Y7347D01*
X18009Y7182D01*
X18287Y7011D01*
X18561Y6834D01*
X18831Y6650D01*
X19097Y6460D01*
X19358Y6265D01*
X19615Y6063D01*
X19867Y5855D01*
X20114Y5642D01*
X20356Y5423D01*
X20593Y5199D01*
X20825Y4969D01*
X21051Y4734D01*
X21272Y4493D01*
X21488Y4248D01*
X21698Y3998D01*
X21902Y3743D01*
X22100Y3484D01*
X22292Y3220D01*
X22385Y3086D01*
X22385Y3086D01*
X35971Y9421D01*
X35853Y9624D01*
X35614Y10028D01*
X35368Y10429D01*
X35115Y10825D01*
X34856Y11217D01*
X34591Y11605D01*
X34320Y11988D01*
X34042Y12367D01*
X33759Y12742D01*
X33469Y13112D01*
X33174Y13477D01*
X32872Y13837D01*
X32565Y14193D01*
X32252Y14543D01*
X31934Y14889D01*
X31610Y15229D01*
X31280Y15564D01*
X30945Y15893D01*
X30605Y16217D01*
X30260Y16536D01*
X29909Y16849D01*
X29554Y17156D01*
X29194Y17457D01*
X28829Y17753D01*
X28459Y18043D01*
X28084Y18326D01*
X27705Y18604D01*
X27322Y18875D01*
X26934Y19140D01*
X26542Y19399D01*
X26146Y19652D01*
X25745Y19898D01*
X25341Y20137D01*
X24934Y20370D01*
X24522Y20597D01*
X24107Y20817D01*
X23688Y21030D01*
X23266Y21236D01*
X22840Y21435D01*
X22412Y21628D01*
X21980Y21813D01*
X21546Y21992D01*
X21108Y22163D01*
X20668Y22328D01*
X20226Y22485D01*
X19781Y22635D01*
X19333Y22778D01*
X18883Y22914D01*
X18431Y23042D01*
X17977Y23164D01*
X17522Y23277D01*
X17064Y23384D01*
X16605Y23483D01*
X16144Y23574D01*
X15682Y23658D01*
X15218Y23735D01*
X14754Y23804D01*
X14288Y23866D01*
X13821Y23920D01*
X13354Y23966D01*
X12886Y24005D01*
X12417Y24037D01*
X11948Y24060D01*
X11478Y24077D01*
X11008Y24085D01*
X10539Y24087D01*
X10069Y24080D01*
X9599Y24066D01*
X9130Y24044D01*
X8661Y24015D01*
X8193Y23979D01*
X7725Y23934D01*
X7258Y23882D01*
X6792Y23823D01*
X6327Y23756D01*
X5863Y23682D01*
X5401Y23599D01*
X4939Y23510D01*
X4480Y23413D01*
X4022Y23309D01*
X3565Y23198D01*
X3111Y23079D01*
X2658Y22952D01*
X2208Y22819D01*
X1760Y22678D01*
X1314Y22530D01*
X870Y22375D01*
X429Y22212D01*
X-9Y22043D01*
X-444Y21866D01*
X-876Y21683D01*
X-1306Y21493D01*
X-1732Y21295D01*
X-2155Y21091D01*
X-2575Y20880D01*
X-2991Y20662D01*
X-3404Y20438D01*
X-3813Y20207D01*
X-4218Y19969D01*
X-4620Y19725D01*
X-5017Y19474D01*
X-5410Y19217D01*
X-5799Y18954D01*
X-6184Y18684D01*
X-6564Y18408D01*
X-6940Y18126D01*
X-7311Y17838D01*
X-7678Y17545D01*
X-8040Y17245D01*
X-8397Y16939D01*
X-8748Y16628D01*
X-9095Y16311D01*
X-9437Y15989D01*
X-9773Y15661D01*
X-10104Y15327D01*
X-10430Y14989D01*
X-10750Y14645D01*
X-11065Y14296D01*
X-11373Y13942D01*
X-11677Y13583D01*
X-11974Y13219D01*
X-12265Y12851D01*
X-12551Y12477D01*
X-12830Y12100D01*
X-13103Y11717D01*
X-13370Y11331D01*
X-13631Y10940D01*
X-13885Y10545D01*
X-14133Y10146D01*
X-14374Y9743D01*
X-14609Y9336D01*
X-14838Y8926D01*
X-14949Y8719D01*
X-14949D01*
X-14949Y8719D01*
X-14949Y8719D01*
X-687Y2068D01*
X-601Y2206D01*
X-424Y2477D01*
X-240Y2744D01*
X-49Y3006D01*
X148Y3263D01*
X351Y3516D01*
X560Y3764D01*
X775Y4006D01*
X995Y4244D01*
X1222Y4476D01*
X1454Y4702D01*
X1691Y4922D01*
X1933Y5137D01*
X2181Y5346D01*
X2434Y5549D01*
X2691Y5746D01*
X2954Y5937D01*
X3220Y6121D01*
X3491Y6298D01*
X3767Y6469D01*
X4046Y6633D01*
X4329Y6791D01*
X4616Y6942D01*
X4907Y7085D01*
X5201Y7222D01*
X5498Y7351D01*
X5798Y7473D01*
X6101Y7588D01*
X6407Y7696D01*
X6715Y7796D01*
X7025Y7888D01*
X7338Y7974D01*
X7653Y8051D01*
X7969Y8121D01*
X8287Y8183D01*
X8607Y8238D01*
X8927Y8285D01*
X9249Y8324D01*
X9572Y8355D01*
X9895Y8378D01*
X10219Y8394D01*
X10543Y8402D01*
X10867Y8402D01*
X11191Y8394D01*
X11514Y8378D01*
X11838Y8355D01*
X12160Y8324D01*
X12482Y8285D01*
X12802Y8238D01*
X13122Y8183D01*
X13440Y8121D01*
X13756Y8051D01*
X14071Y7974D01*
X14384Y7888D01*
X14694Y7796D01*
X15002Y7696D01*
X15308Y7588D01*
X15611Y7473D01*
X15911Y7351D01*
X16208Y7222D01*
X16502Y7085D01*
X16793Y6941D01*
X17080Y6791D01*
X17363Y6633D01*
X17642Y6469D01*
X17918Y6298D01*
X18189Y6120D01*
X18456Y5936D01*
X18718Y5746D01*
X18975Y5549D01*
X19228Y5346D01*
X19476Y5137D01*
X19718Y4922D01*
X19956Y4702D01*
X20188Y4475D01*
X20414Y4244D01*
X20635Y4006D01*
X20850Y3764D01*
X21059Y3516D01*
X21261Y3263D01*
X21458Y3006D01*
X21649Y2744D01*
X21833Y2477D01*
X22011Y2206D01*
X22096Y2068D01*
X22096Y2068D01*
X37085Y9058D01*
X36971Y9269D01*
X36737Y9690D01*
X36498Y10107D01*
X36251Y10520D01*
X35998Y10930D01*
X35738Y11334D01*
X35472Y11735D01*
X35199Y12132D01*
X34920Y12524D01*
X34635Y12911D01*
X34343Y13294D01*
X34046Y13672D01*
X33742Y14045D01*
X33432Y14413D01*
X33117Y14776D01*
X32796Y15134D01*
X32469Y15487D01*
X32136Y15835D01*
X31798Y16177D01*
X31454Y16514D01*
X31105Y16845D01*
X30751Y17170D01*
X30391Y17490D01*
X30027Y17804D01*
X29657Y18112D01*
X29283Y18414D01*
X28903Y18710D01*
X28519Y19000D01*
X28131Y19283D01*
X27737Y19560D01*
X27340Y19831D01*
X26938Y20096D01*
X26532Y20354D01*
X26122Y20605D01*
X25708Y20850D01*
X25289Y21088D01*
X24868Y21319D01*
X24442Y21544D01*
X24013Y21762D01*
X23581Y21972D01*
X23145Y22176D01*
X22705Y22373D01*
X22263Y22562D01*
X21818Y22745D01*
X21370Y22920D01*
X20919Y23088D01*
X20466Y23249D01*
X20010Y23402D01*
X19552Y23548D01*
X19091Y23687D01*
X18628Y23818D01*
X18163Y23942D01*
X17696Y24058D01*
X17228Y24167D01*
X16757Y24268D01*
X16285Y24362D01*
X15812Y24448D01*
X15337Y24526D01*
X14861Y24597D01*
X14384Y24660D01*
X13906Y24715D01*
X13428Y24763D01*
X12948Y24803D01*
X12468Y24835D01*
X11988Y24859D01*
X11507Y24876D01*
X11026Y24885D01*
X10545Y24887D01*
X10064Y24880D01*
X9583Y24866D01*
X9102Y24844D01*
X8622Y24814D01*
X8142Y24777D01*
X7663Y24732D01*
X7185Y24679D01*
X6708Y24619D01*
X6232Y24551D01*
X5757Y24475D01*
X5283Y24391D01*
X4810Y24300D01*
X4340Y24202D01*
X3870Y24095D01*
X3403Y23982D01*
X2937Y23860D01*
X2474Y23732D01*
X2012Y23595D01*
X1553Y23452D01*
X1096Y23301D01*
X642Y23143D01*
X190Y22977D01*
X-259Y22804D01*
X-705Y22624D01*
X-1148Y22437D01*
X-1588Y22243D01*
X-2025Y22041D01*
X-2459Y21833D01*
X-2889Y21618D01*
X-3316Y21396D01*
X-3739Y21167D01*
X-4158Y20931D01*
X-4574Y20688D01*
X-4985Y20439D01*
X-5393Y20183D01*
X-5796Y19921D01*
X-6195Y19652D01*
X-6590Y19377D01*
X-6980Y19095D01*
X-7366Y18808D01*
X-7746Y18514D01*
X-8123Y18214D01*
X-8494Y17908D01*
X-8860Y17596D01*
X-9222Y17278D01*
X-9578Y16955D01*
X-9928Y16625D01*
X-10274Y16291D01*
X-10614Y15950D01*
X-10948Y15605D01*
X-11277Y15254D01*
X-11601Y14897D01*
X-11918Y14536D01*
X-12230Y14169D01*
X-12535Y13798D01*
X-12835Y13421D01*
X-13128Y13040D01*
X-13416Y12654D01*
X-13697Y12264D01*
X-13972Y11869D01*
X-14240Y11469D01*
X-14502Y11066D01*
X-14757Y10658D01*
X-15006Y10246D01*
X-15248Y9831D01*
X-15484Y9411D01*
X-15712Y8988D01*
X-15934Y8561D01*
X-16043Y8346D01*
X-364Y1035D01*
X-290Y1170D01*
X-137Y1436D01*
X24Y1697D01*
X190Y1955D01*
X362Y2209D01*
X541Y2459D01*
X726Y2704D01*
X917Y2944D01*
X1113Y3180D01*
X1315Y3411D01*
X1523Y3637D01*
X1736Y3858D01*
X1955Y4074D01*
X2178Y4284D01*
X2407Y4489D01*
X2641Y4688D01*
X2879Y4882D01*
X3122Y5069D01*
X3370Y5251D01*
X3621Y5426D01*
X3878Y5595D01*
X4138Y5758D01*
X4402Y5915D01*
X4669Y6065D01*
X4941Y6209D01*
X5215Y6346D01*
X5493Y6476D01*
X5774Y6599D01*
X6058Y6716D01*
X6345Y6826D01*
X6635Y6928D01*
X6926Y7024D01*
X7220Y7112D01*
X7516Y7193D01*
X7814Y7267D01*
X8114Y7334D01*
X8415Y7393D01*
X8718Y7445D01*
X9021Y7490D01*
X9326Y7527D01*
X9631Y7557D01*
X9938Y7580D01*
X10244Y7594D01*
X10551Y7602D01*
X10858Y7602D01*
X11165Y7594D01*
X11472Y7580D01*
X11778Y7557D01*
X12083Y7527D01*
X12388Y7490D01*
X12692Y7445D01*
X12994Y7393D01*
X13295Y7334D01*
X13595Y7267D01*
X13893Y7193D01*
X14189Y7112D01*
X14483Y7024D01*
X14775Y6928D01*
X15064Y6825D01*
X15351Y6716D01*
X15635Y6599D01*
X15916Y6476D01*
X16194Y6346D01*
X16468Y6209D01*
X16740Y6065D01*
X17008Y5915D01*
X17272Y5758D01*
X17532Y5595D01*
X17788Y5426D01*
X18040Y5251D01*
X18287Y5069D01*
X18530Y4882D01*
X18769Y4688D01*
X19002Y4489D01*
X19231Y4284D01*
X19455Y4074D01*
X19673Y3858D01*
X19886Y3637D01*
X20094Y3411D01*
X20296Y3180D01*
X20493Y2944D01*
X20683Y2704D01*
X20868Y2459D01*
X21047Y2209D01*
X21219Y1955D01*
X21386Y1697D01*
X21546Y1435D01*
X21699Y1170D01*
X21773Y1035D01*
X21773Y1035D01*
X38177Y8684D01*
X38067Y8903D01*
X37842Y9337D01*
X37610Y9767D01*
X37372Y10194D01*
X37126Y10617D01*
X36874Y11035D01*
X36615Y11450D01*
X36349Y11861D01*
X36078Y12267D01*
X35799Y12669D01*
X35515Y13066D01*
X35223Y13459D01*
X34926Y13847D01*
X34623Y14231D01*
X34313Y14609D01*
X33998Y14983D01*
X33677Y15351D01*
X33349Y15714D01*
X33016Y16073D01*
X32678Y16425D01*
X32334Y16772D01*
X31984Y17114D01*
X31629Y17450D01*
X31269Y17781D01*
X30903Y18105D01*
X30532Y18424D01*
X30157Y18737D01*
X29776Y19044D01*
X29390Y19344D01*
X29000Y19639D01*
X28605Y19927D01*
X28206Y20209D01*
X27802Y20485D01*
X27394Y20754D01*
X26981Y21016D01*
X26565Y21272D01*
X26144Y21521D01*
X25720Y21764D01*
X25291Y22000D01*
X24859Y22229D01*
X24424Y22451D01*
X23985Y22666D01*
X23542Y22874D01*
X23097Y23075D01*
X22648Y23268D01*
X22196Y23455D01*
X21741Y23634D01*
X21283Y23807D01*
X20823Y23971D01*
X20360Y24129D01*
X19895Y24279D01*
X19428Y24422D01*
X18958Y24557D01*
X18486Y24685D01*
X18012Y24805D01*
X17536Y24917D01*
X17059Y25022D01*
X16579Y25120D01*
X16099Y25209D01*
X15617Y25291D01*
X15134Y25366D01*
X14649Y25433D01*
X14164Y25491D01*
X13678Y25543D01*
X13191Y25586D01*
X12703Y25622D01*
X12215Y25650D01*
X11727Y25670D01*
X11238Y25683D01*
X10749Y25687D01*
X10260Y25684D01*
X9771Y25673D01*
X9283Y25654D01*
X8795Y25628D01*
X8307Y25593D01*
X7820Y25551D01*
X7333Y25501D01*
X6848Y25444D01*
X6363Y25379D01*
X5880Y25306D01*
X5398Y25225D01*
X4917Y25137D01*
X4438Y25041D01*
X3960Y24937D01*
X3484Y24826D01*
X3009Y24707D01*
X2537Y24581D01*
X2067Y24447D01*
X1599Y24305D01*
X1133Y24157D01*
X670Y24001D01*
X209Y23837D01*
X-249Y23666D01*
X-704Y23488D01*
X-1157Y23303D01*
X-1606Y23110D01*
X-2052Y22911D01*
X-2495Y22704D01*
X-2935Y22490D01*
X-3371Y22269D01*
X-3804Y22042D01*
X-4233Y21807D01*
X-4658Y21566D01*
X-5080Y21318D01*
X-5497Y21063D01*
X-5910Y20802D01*
X-6319Y20534D01*
X-6724Y20260D01*
X-7124Y19979D01*
X-7520Y19692D01*
X-7911Y19398D01*
X-8297Y19099D01*
X-8679Y18793D01*
X-9055Y18481D01*
X-9427Y18164D01*
X-9793Y17840D01*
X-10155Y17511D01*
X-10511Y17176D01*
X-10861Y16835D01*
X-11207Y16489D01*
X-11546Y16137D01*
X-11880Y15780D01*
X-12208Y15418D01*
X-12531Y15050D01*
X-12847Y14678D01*
X-13158Y14300D01*
X-13462Y13917D01*
X-13761Y13530D01*
X-14053Y13138D01*
X-14339Y12742D01*
X-14618Y12340D01*
X-14891Y11935D01*
X-15158Y11525D01*
X-15418Y11111D01*
X-15671Y10693D01*
X-15918Y10271D01*
X-16158Y9845D01*
X-16391Y9415D01*
X-16618Y8982D01*
X-16837Y8545D01*
X-16944Y8325D01*
D01*
X-16944Y8325D01*
X-16944Y8325D01*
X-18206Y8914D01*
X-18037Y9276D01*
X-17131Y8853D01*
X-17020Y9075D01*
X-16792Y9515D01*
X-16557Y9951D01*
X-16316Y10384D01*
X-16067Y10812D01*
X-15812Y11236D01*
X-15549Y11657D01*
X-15281Y12073D01*
X-15005Y12485D01*
X-14723Y12892D01*
X-14435Y13295D01*
X-14140Y13693D01*
X-13839Y14086D01*
X-13532Y14475D01*
X-13218Y14859D01*
X-12899Y15237D01*
X-12573Y15611D01*
X-12242Y15979D01*
X-11904Y16342D01*
X-11562Y16699D01*
X-11213Y17051D01*
X-10859Y17398D01*
X-10499Y17738D01*
X-10134Y18073D01*
X-9764Y18402D01*
X-9388Y18725D01*
X-9007Y19042D01*
X-8622Y19353D01*
X-8231Y19658D01*
X-7836Y19956D01*
X-7436Y20249D01*
X-7031Y20535D01*
X-6622Y20814D01*
X-6208Y21087D01*
X-5790Y21353D01*
X-5368Y21612D01*
X-4942Y21865D01*
X-4512Y22111D01*
X-4078Y22350D01*
X-3641Y22582D01*
X-3199Y22807D01*
X-2754Y23025D01*
X-2306Y23235D01*
X-1854Y23439D01*
X-1400Y23636D01*
X-942Y23825D01*
X-481Y24007D01*
X-17Y24181D01*
X449Y24348D01*
X918Y24508D01*
X1389Y24660D01*
X1863Y24805D01*
X2339Y24942D01*
X2818Y25071D01*
X3298Y25193D01*
X3780Y25307D01*
X4264Y25414D01*
X4749Y25512D01*
X5236Y25603D01*
X5724Y25687D01*
X6214Y25762D01*
X6705Y25830D01*
X7197Y25890D01*
X7689Y25942D01*
X8183Y25986D01*
X8677Y26022D01*
X9171Y26050D01*
X9666Y26071D01*
X10161Y26083D01*
X10657Y26088D01*
X11152Y26085D01*
D02*
G37*
G36*
X31869Y10598D02*
X31869Y10598D01*
X31869Y10598D01*
X31869Y10598D01*
D02*
G37*
G36*
X33077Y10278D02*
X33076Y10278D01*
X33077Y10278D01*
X33077Y10278D01*
D02*
G37*
G36*
X37633Y8872D02*
D01*
X37633Y8872D01*
X37633Y8872D01*
D02*
G37*
%LPC*%
G36*
X-7833Y10697D02*
X-7833Y10697D01*
X-7833Y10697D01*
X-7833Y10697D01*
D02*
G37*
G36*
X-10330Y10096D02*
X-10330Y10096D01*
X-10330Y10096D01*
X-10330Y10096D01*
D02*
G37*
G36*
X-11527Y9771D02*
X-11527Y9771D01*
X-11527Y9771D01*
X-11527Y9771D01*
D02*
G37*
G36*
X-16043Y8346D02*
X-16043Y8346D01*
X-16043Y8346D01*
D01*
D02*
G37*
%LPD*%
D11*
X-24500Y11500D02*
D03*
D13*
X10505Y18862D02*
G03*
X10905Y18862I200J-775D01*
G01*
X22764Y4586D02*
G03*
X-1355Y4586I-12059J-9595D01*
G01*
X22644Y4089D02*
G03*
X-1235Y4089I-11940J-9098D01*
G01*
X22096Y2068D02*
G03*
X-687Y2068I-11391J-7077D01*
G01*
X21939Y1554D02*
G03*
X-530Y1554I-11235J-6563D01*
G01*
X21773Y1035D02*
G03*
X-364Y1035I-11068J-6044D01*
G01*
X22518Y3589D02*
G03*
X-1109Y3589I-11813J-8598D01*
G01*
X22385Y3086D02*
G03*
X-976Y3086I-11680J-8095D01*
G01*
X22244Y2579D02*
G03*
X-835Y2579I-11540J-7588D01*
G01*
X21597Y511D02*
G03*
X-187Y511I-10892J-5520D01*
G01*
X35405Y9598D02*
G03*
X-14394Y8902I-24700J-14607D01*
G01*
X35971Y9421D02*
G03*
X-14949Y8719I-25266J-14430D01*
G01*
X-15788Y11273D02*
G03*
X-17131Y8853I26493J-16282D01*
G01*
X38716Y8494D02*
G03*
X-15788Y11273I-28011J-13503D01*
G01*
X37085Y9058D02*
G03*
X-16043Y8346I-26380J-14067D01*
G01*
X36530Y9240D02*
G03*
X-15499Y8534I-25826J-14250D01*
G01*
X37633Y8872D02*
G03*
X-16581Y8156I-26929J-13881D01*
G01*
X31869Y10598D02*
G03*
X-10932Y9935I-21164J-15607D01*
G01*
X32477Y10440D02*
G03*
X-11527Y9771I-21772J-15449D01*
G01*
X33669Y10113D02*
G03*
X-12694Y9433I-22964J-15122D01*
G01*
X33077Y10278D02*
G03*
X-12114Y9604I-22372J-15287D01*
G01*
X34833Y9773D02*
G03*
X-13834Y9082I-24128J-14782D01*
G01*
X34254Y9945D02*
G03*
X-13267Y9258I-23550J-14954D01*
G01*
X29993Y11047D02*
G03*
X-9100Y10405I-19288J-16056D01*
G01*
X10905Y19686D02*
G03*
X-8471Y10553I-200J-24695D01*
G01*
X10505Y19286D02*
G03*
X-7833Y10697I200J-24295D01*
G01*
X23452Y7997D02*
G03*
X-2043Y7997I-12747J-13006D01*
G01*
X30627Y10901D02*
G03*
X-9719Y10253I-19923J-15910D01*
G01*
X31252Y10751D02*
G03*
X-10330Y10096I-20548J-15761D01*
G01*
X23186Y6549D02*
G03*
X-1777Y6549I-12482J-11558D01*
G01*
X23088Y6062D02*
G03*
X-1679Y6062I-12384J-11071D01*
G01*
X22878Y5081D02*
G03*
X-1468Y5081I-12173J-10090D01*
G01*
X22986Y5573D02*
G03*
X-1577Y5573I-12281J-10582D01*
G01*
X23368Y7516D02*
G03*
X-1958Y7516I-12663J-12525D01*
G01*
X23279Y7034D02*
G03*
X-1870Y7034I-12575J-12043D01*
G01*
X23368Y7516D02*
X30627Y10901D01*
X23186Y6549D02*
X31869Y10598D01*
X23279Y7034D02*
X31252Y10751D01*
X23279Y7034D02*
X23279D01*
X22878Y5081D02*
X33669Y10113D01*
X23089Y6062D02*
X32477Y10440D01*
X23088Y6062D02*
X23089D01*
X22986Y5573D02*
X33077Y10278D01*
X38716Y8494D02*
X38716D01*
X34833Y9773D02*
X34833D01*
X10905Y18862D02*
Y19686D01*
X10505Y18862D02*
Y19286D01*
X23452Y7997D02*
X29993Y11047D01*
X23186Y6549D02*
X23186D01*
X22986Y5573D02*
X22986D01*
X22878Y5081D02*
X22878D01*
X22764Y4586D02*
X34254Y9945D01*
X22644Y4089D02*
X34833Y9773D01*
X22518Y3589D02*
X35405Y9598D01*
X22518Y3589D02*
X22518D01*
X22385Y3086D02*
X35971Y9421D01*
X22244Y2579D02*
X36530Y9240D01*
X22096Y2068D02*
X37085Y9058D01*
X21773Y1035D02*
X38177Y8684D01*
X21939Y1554D02*
X37633Y8872D01*
X21597Y511D02*
X38716Y8494D01*
X21597Y511D02*
X21597D01*
X22385Y3086D02*
X22385D01*
X-1109Y3589D02*
X-1109D01*
X-15788Y11273D02*
X-15788D01*
X-8471Y10553D02*
X-8471D01*
X-9719Y10253D02*
X-9719D01*
X-8471Y10553D02*
X-1958Y7516D01*
X-7833Y10697D02*
X-2043Y7997D01*
X-10330Y10096D02*
X-10330D01*
X-13834Y9082D02*
X-13834D01*
X-14394Y8902D02*
X-14394D01*
X-16581Y8156D02*
X-16581D01*
X-976Y3086D02*
X-976D01*
X-13834Y9082D02*
X-976Y3086D01*
X-14949Y8719D02*
X-687Y2068D01*
X-14394Y8902D02*
X-835Y2579D01*
X-15499Y8534D02*
X-530Y1554D01*
X-187Y511D02*
X-187D01*
X-16581Y8156D02*
X-187Y511D01*
X-16043Y8346D02*
X-364Y1035D01*
X-9100Y10405D02*
X-1870Y7034D01*
X-10932Y9935D02*
X-1577Y5573D01*
X-1777Y6549D02*
X-1777D01*
X-9719Y10253D02*
X-1777Y6549D01*
X-10330Y10096D02*
X-1679Y6062D01*
X-12114Y9604D02*
X-1355Y4586D01*
X-11527Y9771D02*
X-1468Y5081D01*
X-1679Y6062D02*
X-1679D01*
X-1468Y5081D02*
X-1468D01*
X-1577Y5573D02*
X-1577D01*
X-1870Y7034D02*
X-1870D01*
X-12694Y9433D02*
X-1235Y4089D01*
X-13267Y9258D02*
X-1109Y3589D01*
X38177Y8684D02*
X38177D01*
D14*
X-23417Y11022D02*
X-18122Y9095D01*
D15*
X-24500Y11500D02*
X-23417Y11022D01*
D16*
X40163Y10483D02*
D03*
X3645Y16772D02*
D03*
X10705Y18087D02*
D03*
M02*
